tb_top.vcd
$date
	Thu Nov  6 13:06:43 2025
$end
$version
	Icarus Verilog
$end
$timescale
	1s
$end
$scope module tb_top $end
$var wire 1 ! done_sbox $end
$var parameter 32 " CLK_PERIOD $end
$var reg 1 # clk $end
$var reg 1 $ rst $end
$scope module inst_top $end
$var wire 1 # clk $end
$var wire 1 $ rst $end
$var wire 32 % val3 [31:0] $end
$var wire 32 & val2 [31:0] $end
$var wire 32 ' val1 [31:0] $end
$var wire 23 ( v_reg [22:0] $end
$var wire 1 ) seen_flag $end
$var wire 1 ! done_sbox $end
$var wire 1 * data_valid $end
$var wire 8 + count [7:0] $end
$var wire 8 , V [7:0] $end
$var wire 23 - EX3 [22:0] $end
$var wire 23 . EX2 [22:0] $end
$var wire 23 / EX1 [22:0] $end
$scope module FF_inst $end
$var wire 1 # clk $end
$var wire 8 0 mix_data [7:0] $end
$var wire 1 $ rst $end
$var reg 8 1 V [7:0] $end
$var reg 8 2 data_ff [7:0] $end
$upscope $end
$scope module checker_inst $end
$var wire 1 # clk $end
$var wire 1 $ rst $end
$var wire 1 ) seen_single $end
$var wire 8 3 count [7:0] $end
$var reg 1 * data_valid $end
$upscope $end
$scope module counter_inst $end
$var wire 1 # clk $end
$var wire 1 * enable_counter $end
$var wire 1 $ rst $end
$var reg 8 4 count [7:0] $end
$upscope $end
$scope module extractor_inst $end
$var wire 1 # clk $end
$var wire 1 5 enable_extract $end
$var wire 1 $ rst $end
$var wire 32 6 val3 [31:0] $end
$var wire 32 7 val2 [31:0] $end
$var wire 32 8 val1 [31:0] $end
$var reg 23 9 EX1 [22:0] $end
$var reg 23 : EX2 [22:0] $end
$var reg 23 ; EX3 [22:0] $end
$upscope $end
$scope module mixer_inst $end
$var wire 23 < EX1 [22:0] $end
$var wire 23 = EX2 [22:0] $end
$var wire 23 > EX3 [22:0] $end
$var wire 1 # clk $end
$var wire 1 $ rst $end
$var reg 23 ? D1 [22:0] $end
$var reg 23 @ D2 [22:0] $end
$var reg 23 A D3 [22:0] $end
$var reg 23 B v_reg [22:0] $end
$upscope $end
$scope module read_inst $end
$var wire 1 # clk $end
$var wire 1 C enable_read $end
$var wire 1 $ rst $end
$var reg 8 D index [7:0] $end
$var reg 32 E val1 [31:0] $end
$var reg 32 F val2 [31:0] $end
$var reg 32 G val3 [31:0] $end
$upscope $end
$scope module sbox_inst $end
$var wire 1 # clk $end
$var wire 8 H data_in [7:0] $end
$var wire 1 * enable_write $end
$var wire 1 $ rst $end
$var wire 1 ! done_sbox $end
$var reg 8 I data_out [7:0] $end
$var reg 8 J index [7:0] $end
$var integer 32 K i [31:0] $end
$upscope $end
$scope module seen_inst $end
$var wire 1 # clk $end
$var wire 8 L data_in [7:0] $end
$var wire 1 $ rst $end
$var reg 8 M data_reg [7:0] $end
$var reg 8 N index [7:0] $end
$var reg 1 ) seen_flag $end
$var reg 1 O unvalid $end
$var integer 32 P i [31:0] $end
$upscope $end
$upscope $end
$upscope $end
$enddefinitions $end
$comment Show the parameter values. $end
$dumpall
b1010 "
$end
#0
$dumpvars
b100000000 P
0O
b0 N
b0 M
b0 L
b100000000 K
b0 J
bx I
b0 H
b0 G
b0 F
b0 E
b0 D
1C
b0 B
b0 A
b0 @
b0 ?
b0 >
b0 =
b0 <
b0 ;
b0 :
b0 9
b0 8
b0 7
b0 6
15
b0 4
b0 3
b0 2
b0 1
b0 0
b0 /
b0 .
b0 -
b0 ,
b0 +
0*
0)
b0 (
b0 '
b0 &
b0 %
1$
1#
0!
$end
#5
0#
#10
b100000000 K
b100000000 P
1#
#15
0#
#20
1O
b11 D
b1101111011 %
b1101111011 6
b1101111011 G
b10 &
b10 7
b10 F
b1 '
b1 8
b1 E
b1 N
1*
b100000000 P
1#
0$
#25
0#
#30
b1 J
b1 +
b1 3
b1 4
1)
b1101111011 -
b1101111011 ;
b1101111011 >
b10 .
b10 :
b10 =
b1 /
b1 9
b1 <
b110 D
b1101111011 &
b1101111011 7
b1101111011 F
b1101111011 '
b1101111011 8
b1101111011 E
1#
#35
0#
#40
b1001 D
b1101111011 .
b1101111011 :
b1101111011 =
b1101111011 /
b1101111011 9
b1101111011 <
b1111011 A
b10 @
b1 ?
b10 +
b10 3
b10 4
0*
b10 J
1#
#45
0#
#50
b1111000 0
b1111000 (
b1111000 B
b1111011 @
b1111011 ?
b1100 D
1#
#55
0#
#60
b1111011 0
b1111 D
b1111011 (
b1111011 B
b1111000 2
1#
#65
0#
#70
0O
b100000000 P
b1111000 ,
b1111000 1
b1111000 H
b1111000 L
b1111011 2
b10010 D
1#
#75
0#
#80
b100000000 P
b10101 D
b10100 %
b10100 6
b10100 G
b10011 &
b10011 7
b10011 F
b10010 '
b10010 8
b10010 E
b1111011 ,
b1111011 1
b1111011 H
b1111011 L
b1111000 M
b10 N
0)
1#
#85
0#
#90
b100000000 P
1*
b11 N
b1111011 M
b10100 -
b10100 ;
b10100 >
b10011 .
b10011 :
b10011 =
b10010 /
b10010 9
b10010 <
b11000 D
b10111 %
b10111 6
b10111 G
b10110 &
b10110 7
b10110 F
b10101 '
b10101 8
b10101 E
1#
#95
0#
#100
1O
b100000000 P
b11011 D
b11010 %
b11010 6
b11010 G
b11001 &
b11001 7
b11001 F
b11000 '
b11000 8
b11000 E
b10111 -
b10111 ;
b10111 >
b10110 .
b10110 :
b10110 =
b10101 /
b10101 9
b10101 <
b10100 A
b10011 @
b10010 ?
b100 N
b11 +
b11 3
b11 4
b11 J
1#
#105
0#
#110
b10101 0
b100 J
b100 +
b100 3
b100 4
1)
b10101 (
b10101 B
b10111 A
b10110 @
b10101 ?
b11010 -
b11010 ;
b11010 >
b11001 .
b11001 :
b11001 =
b11000 /
b11000 9
b11000 <
b11110 D
b11101 %
b11101 6
b11101 G
b11100 &
b11100 7
b11100 F
b11011 '
b11011 8
b11011 E
1#
#115
0#
#120
b10100 0
b100001 D
b100000 %
b100000 6
b100000 G
b11111 &
b11111 7
b11111 F
b11110 '
b11110 8
b11110 E
b11101 -
b11101 ;
b11101 >
b11100 .
b11100 :
b11100 =
b11011 /
b11011 9
b11011 <
b11010 A
b11001 @
b11000 ?
b10100 (
b10100 B
b10101 2
b101 +
b101 3
b101 4
0*
b101 J
1#
#125
0#
#130
0O
b100000000 P
b11011 0
b10101 ,
b10101 1
b10101 H
b10101 L
b10100 2
b11011 (
b11011 B
b11101 A
b11100 @
b11011 ?
b100000 -
b100000 ;
b100000 >
b11111 .
b11111 :
b11111 =
b11110 /
b11110 9
b11110 <
b100100 D
b100011 %
b100011 6
b100011 G
b100010 &
b100010 7
b100010 F
b100001 '
b100001 8
b100001 E
1#
#135
0#
#140
b11010 0
b100000000 P
b100111 D
b100110 %
b100110 6
b100110 G
b100101 &
b100101 7
b100101 F
b100100 '
b100100 8
b100100 E
b100011 -
b100011 ;
b100011 >
b100010 .
b100010 :
b100010 =
b100001 /
b100001 9
b100001 <
b100000 A
b11111 @
b11110 ?
b11010 (
b11010 B
b10100 ,
b10100 1
b10100 H
b10100 L
b11011 2
b10101 M
b101 N
0)
1#
#145
0#
#150
b100000000 P
b100001 0
1*
b110 N
b10100 M
b11011 ,
b11011 1
b11011 H
b11011 L
b11010 2
b100001 (
b100001 B
b100011 A
b100010 @
b100001 ?
b100110 -
b100110 ;
b100110 >
b100101 .
b100101 :
b100101 =
b100100 /
b100100 9
b100100 <
b101010 D
b101001 %
b101001 6
b101001 G
b101000 &
b101000 7
b101000 F
b100111 '
b100111 8
b100111 E
1#
#155
0#
#160
b100000 0
b100000000 P
b101101 D
b101100 %
b101100 6
b101100 G
b101011 &
b101011 7
b101011 F
b101010 '
b101010 8
b101010 E
b101001 -
b101001 ;
b101001 >
b101000 .
b101000 :
b101000 =
b100111 /
b100111 9
b100111 <
b100110 A
b100101 @
b100100 ?
b100000 (
b100000 B
b11010 ,
b11010 1
b11010 H
b11010 L
b100001 2
b11011 M
b111 N
b110 +
b110 3
b110 4
b110 J
1#
#165
0#
#170
b100000000 P
b100111 0
b111 J
b111 +
b111 3
b111 4
b1000 N
b11010 M
b100001 ,
b100001 1
b100001 H
b100001 L
b100000 2
b100111 (
b100111 B
b101001 A
b101000 @
b100111 ?
b101100 -
b101100 ;
b101100 >
b101011 .
b101011 :
b101011 =
b101010 /
b101010 9
b101010 <
b110000 D
b101111 %
b101111 6
b101111 G
b101110 &
b101110 7
b101110 F
b101101 '
b101101 8
b101101 E
1#
#175
0#
#180
b100110 0
b100000000 P
b110011 D
b110010 %
b110010 6
b110010 G
b110001 &
b110001 7
b110001 F
b110000 '
b110000 8
b110000 E
b101111 -
b101111 ;
b101111 >
b101110 .
b101110 :
b101110 =
b101101 /
b101101 9
b101101 <
b101100 A
b101011 @
b101010 ?
b100110 (
b100110 B
b100000 ,
b100000 1
b100000 H
b100000 L
b100111 2
b100001 M
b1001 N
b1000 +
b1000 3
b1000 4
b1000 J
1#
#185
0#
#190
b100000000 P
b101101 0
b1001 J
b1001 +
b1001 3
b1001 4
b1010 N
b100000 M
b100111 ,
b100111 1
b100111 H
b100111 L
b100110 2
b101101 (
b101101 B
b101111 A
b101110 @
b101101 ?
b110010 -
b110010 ;
b110010 >
b110001 .
b110001 :
b110001 =
b110000 /
b110000 9
b110000 <
b110110 D
b110101 %
b110101 6
b110101 G
b110100 &
b110100 7
b110100 F
b110011 '
b110011 8
b110011 E
1#
#195
0#
#200
b101100 0
b100000000 P
b111001 D
b111000 %
b111000 6
b111000 G
b110111 &
b110111 7
b110111 F
b110110 '
b110110 8
b110110 E
b110101 -
b110101 ;
b110101 >
b110100 .
b110100 :
b110100 =
b110011 /
b110011 9
b110011 <
b110010 A
b110001 @
b110000 ?
b101100 (
b101100 B
b100110 ,
b100110 1
b100110 H
b100110 L
b101101 2
b100111 M
b1011 N
b1010 +
b1010 3
b1010 4
b1010 J
1#
#205
0#
#210
b100000000 P
b110011 0
b1011 J
b1011 +
b1011 3
b1011 4
b1100 N
b100110 M
b101101 ,
b101101 1
b101101 H
b101101 L
b101100 2
b110011 (
b110011 B
b110101 A
b110100 @
b110011 ?
b111000 -
b111000 ;
b111000 >
b110111 .
b110111 :
b110111 =
b110110 /
b110110 9
b110110 <
b111100 D
b111011 %
b111011 6
b111011 G
b111010 &
b111010 7
b111010 F
b111001 '
b111001 8
b111001 E
1#
#215
0#
#220
b110010 0
b100000000 P
b111111 D
b111110 %
b111110 6
b111110 G
b111101 &
b111101 7
b111101 F
b111100 '
b111100 8
b111100 E
b111011 -
b111011 ;
b111011 >
b111010 .
b111010 :
b111010 =
b111001 /
b111001 9
b111001 <
b111000 A
b110111 @
b110110 ?
b110010 (
b110010 B
b101100 ,
b101100 1
b101100 H
b101100 L
b110011 2
b101101 M
b1101 N
b1100 +
b1100 3
b1100 4
b1100 J
1#
#225
0#
#230
b100000000 P
b111001 0
b1101 J
b1101 +
b1101 3
b1101 4
b1110 N
b101100 M
b110011 ,
b110011 1
b110011 H
b110011 L
b110010 2
b111001 (
b111001 B
b111011 A
b111010 @
b111001 ?
b111110 -
b111110 ;
b111110 >
b111101 .
b111101 :
b111101 =
b111100 /
b111100 9
b111100 <
b1000010 D
b1000001 %
b1000001 6
b1000001 G
b1000000 &
b1000000 7
b1000000 F
b111111 '
b111111 8
b111111 E
1#
#235
0#
#240
b111000 0
b100000000 P
b1000101 D
b1000100 %
b1000100 6
b1000100 G
b1000011 &
b1000011 7
b1000011 F
b1000010 '
b1000010 8
b1000010 E
b1000001 -
b1000001 ;
b1000001 >
b1000000 .
b1000000 :
b1000000 =
b111111 /
b111111 9
b111111 <
b111110 A
b111101 @
b111100 ?
b111000 (
b111000 B
b110010 ,
b110010 1
b110010 H
b110010 L
b111001 2
b110011 M
b1111 N
b1110 +
b1110 3
b1110 4
b1110 J
1#
#245
0#
#250
b100000000 P
b111111 0
b1111 J
b1111 +
b1111 3
b1111 4
b10000 N
b110010 M
b111001 ,
b111001 1
b111001 H
b111001 L
b111000 2
b111111 (
b111111 B
b1000001 A
b1000000 @
b111111 ?
b1000100 -
b1000100 ;
b1000100 >
b1000011 .
b1000011 :
b1000011 =
b1000010 /
b1000010 9
b1000010 <
b1001000 D
b1000111 %
b1000111 6
b1000111 G
b1000110 &
b1000110 7
b1000110 F
b1000101 '
b1000101 8
b1000101 E
1#
#255
0#
#260
b111110 0
b100000000 P
b1001011 D
b1001010 %
b1001010 6
b1001010 G
b1001001 &
b1001001 7
b1001001 F
b1001000 '
b1001000 8
b1001000 E
b1000111 -
b1000111 ;
b1000111 >
b1000110 .
b1000110 :
b1000110 =
b1000101 /
b1000101 9
b1000101 <
b1000100 A
b1000011 @
b1000010 ?
b111110 (
b111110 B
b111000 ,
b111000 1
b111000 H
b111000 L
b111111 2
b111001 M
b10001 N
b10000 +
b10000 3
b10000 4
b10000 J
1#
#265
0#
#270
b100000000 P
b1000101 0
b10001 J
b10001 +
b10001 3
b10001 4
b10010 N
b111000 M
b111111 ,
b111111 1
b111111 H
b111111 L
b111110 2
b1000101 (
b1000101 B
b1000111 A
b1000110 @
b1000101 ?
b1001010 -
b1001010 ;
b1001010 >
b1001001 .
b1001001 :
b1001001 =
b1001000 /
b1001000 9
b1001000 <
b1001110 D
b1001101 %
b1001101 6
b1001101 G
b1001100 &
b1001100 7
b1001100 F
b1001011 '
b1001011 8
b1001011 E
1#
#275
0#
#280
b1000100 0
b100000000 P
b1010001 D
b1010000 %
b1010000 6
b1010000 G
b1001111 &
b1001111 7
b1001111 F
b1001110 '
b1001110 8
b1001110 E
b1001101 -
b1001101 ;
b1001101 >
b1001100 .
b1001100 :
b1001100 =
b1001011 /
b1001011 9
b1001011 <
b1001010 A
b1001001 @
b1001000 ?
b1000100 (
b1000100 B
b111110 ,
b111110 1
b111110 H
b111110 L
b1000101 2
b111111 M
b10011 N
b10010 +
b10010 3
b10010 4
b10010 J
1#
#285
0#
#290
b100000000 P
b1001011 0
b10011 J
b10011 +
b10011 3
b10011 4
b10100 N
b111110 M
b1000101 ,
b1000101 1
b1000101 H
b1000101 L
b1000100 2
b1001011 (
b1001011 B
b1001101 A
b1001100 @
b1001011 ?
b1010000 -
b1010000 ;
b1010000 >
b1001111 .
b1001111 :
b1001111 =
b1001110 /
b1001110 9
b1001110 <
b1010100 D
b1010011 %
b1010011 6
b1010011 G
b1010010 &
b1010010 7
b1010010 F
b1010001 '
b1010001 8
b1010001 E
1#
#295
0#
#300
b1001010 0
b100000000 P
b1010111 D
b1010110 %
b1010110 6
b1010110 G
b1010101 &
b1010101 7
b1010101 F
b1010100 '
b1010100 8
b1010100 E
b1010011 -
b1010011 ;
b1010011 >
b1010010 .
b1010010 :
b1010010 =
b1010001 /
b1010001 9
b1010001 <
b1010000 A
b1001111 @
b1001110 ?
b1001010 (
b1001010 B
b1000100 ,
b1000100 1
b1000100 H
b1000100 L
b1001011 2
b1000101 M
b10101 N
b10100 +
b10100 3
b10100 4
b10100 J
1#
#305
0#
#310
b100000000 P
b1010001 0
b10101 J
b10101 +
b10101 3
b10101 4
b10110 N
b1000100 M
b1001011 ,
b1001011 1
b1001011 H
b1001011 L
b1001010 2
b1010001 (
b1010001 B
b1010011 A
b1010010 @
b1010001 ?
b1010110 -
b1010110 ;
b1010110 >
b1010101 .
b1010101 :
b1010101 =
b1010100 /
b1010100 9
b1010100 <
b1011010 D
b1011001 %
b1011001 6
b1011001 G
b1011000 &
b1011000 7
b1011000 F
b1010111 '
b1010111 8
b1010111 E
1#
#315
0#
#320
b1010000 0
b100000000 P
b1011101 D
b1011100 %
b1011100 6
b1011100 G
b1011011 &
b1011011 7
b1011011 F
b1011010 '
b1011010 8
b1011010 E
b1011001 -
b1011001 ;
b1011001 >
b1011000 .
b1011000 :
b1011000 =
b1010111 /
b1010111 9
b1010111 <
b1010110 A
b1010101 @
b1010100 ?
b1010000 (
b1010000 B
b1001010 ,
b1001010 1
b1001010 H
b1001010 L
b1010001 2
b1001011 M
b10111 N
b10110 +
b10110 3
b10110 4
b10110 J
1#
#325
0#
#330
b100000000 P
b1010111 0
b10111 J
b10111 +
b10111 3
b10111 4
b11000 N
b1001010 M
b1010001 ,
b1010001 1
b1010001 H
b1010001 L
b1010000 2
b1010111 (
b1010111 B
b1011001 A
b1011000 @
b1010111 ?
b1011100 -
b1011100 ;
b1011100 >
b1011011 .
b1011011 :
b1011011 =
b1011010 /
b1011010 9
b1011010 <
b1100000 D
b1011111 %
b1011111 6
b1011111 G
b1011110 &
b1011110 7
b1011110 F
b1011101 '
b1011101 8
b1011101 E
1#
#335
0#
#340
b1010110 0
b100000000 P
b1100011 D
b1100010 %
b1100010 6
b1100010 G
b1100001 &
b1100001 7
b1100001 F
b1100000 '
b1100000 8
b1100000 E
b1011111 -
b1011111 ;
b1011111 >
b1011110 .
b1011110 :
b1011110 =
b1011101 /
b1011101 9
b1011101 <
b1011100 A
b1011011 @
b1011010 ?
b1010110 (
b1010110 B
b1010000 ,
b1010000 1
b1010000 H
b1010000 L
b1010111 2
b1010001 M
b11001 N
b11000 +
b11000 3
b11000 4
b11000 J
1#
#345
0#
#350
b100000000 P
b1011101 0
b11001 J
b11001 +
b11001 3
b11001 4
b11010 N
b1010000 M
b1010111 ,
b1010111 1
b1010111 H
b1010111 L
b1010110 2
b1011101 (
b1011101 B
b1011111 A
b1011110 @
b1011101 ?
b1100010 -
b1100010 ;
b1100010 >
b1100001 .
b1100001 :
b1100001 =
b1100000 /
b1100000 9
b1100000 <
b1100110 D
b1100101 %
b1100101 6
b1100101 G
b1100100 &
b1100100 7
b1100100 F
b1100011 '
b1100011 8
b1100011 E
1#
#355
0#
#360
b1011100 0
b100000000 P
b1101001 D
b1101000 %
b1101000 6
b1101000 G
b1100111 &
b1100111 7
b1100111 F
b1100110 '
b1100110 8
b1100110 E
b1100101 -
b1100101 ;
b1100101 >
b1100100 .
b1100100 :
b1100100 =
b1100011 /
b1100011 9
b1100011 <
b1100010 A
b1100001 @
b1100000 ?
b1011100 (
b1011100 B
b1010110 ,
b1010110 1
b1010110 H
b1010110 L
b1011101 2
b1010111 M
b11011 N
b11010 +
b11010 3
b11010 4
b11010 J
1#
#365
0#
#370
b100000000 P
b1100011 0
b11011 J
b11011 +
b11011 3
b11011 4
b11100 N
b1010110 M
b1011101 ,
b1011101 1
b1011101 H
b1011101 L
b1011100 2
b1100011 (
b1100011 B
b1100101 A
b1100100 @
b1100011 ?
b1101000 -
b1101000 ;
b1101000 >
b1100111 .
b1100111 :
b1100111 =
b1100110 /
b1100110 9
b1100110 <
b1101100 D
b1101011 %
b1101011 6
b1101011 G
b1101010 &
b1101010 7
b1101010 F
b1101001 '
b1101001 8
b1101001 E
1#
#375
0#
#380
b1100010 0
b100000000 P
b1101111 D
b1101110 %
b1101110 6
b1101110 G
b1101101 &
b1101101 7
b1101101 F
b1101100 '
b1101100 8
b1101100 E
b1101011 -
b1101011 ;
b1101011 >
b1101010 .
b1101010 :
b1101010 =
b1101001 /
b1101001 9
b1101001 <
b1101000 A
b1100111 @
b1100110 ?
b1100010 (
b1100010 B
b1011100 ,
b1011100 1
b1011100 H
b1011100 L
b1100011 2
b1011101 M
b11101 N
b11100 +
b11100 3
b11100 4
b11100 J
1#
#385
0#
#390
b100000000 P
b1101001 0
b11101 J
b11101 +
b11101 3
b11101 4
b11110 N
b1011100 M
b1100011 ,
b1100011 1
b1100011 H
b1100011 L
b1100010 2
b1101001 (
b1101001 B
b1101011 A
b1101010 @
b1101001 ?
b1101110 -
b1101110 ;
b1101110 >
b1101101 .
b1101101 :
b1101101 =
b1101100 /
b1101100 9
b1101100 <
b1110010 D
b1110001 %
b1110001 6
b1110001 G
b1110000 &
b1110000 7
b1110000 F
b1101111 '
b1101111 8
b1101111 E
1#
#395
0#
#400
b1101000 0
b100000000 P
b1110101 D
b1110100 %
b1110100 6
b1110100 G
b1110011 &
b1110011 7
b1110011 F
b1110010 '
b1110010 8
b1110010 E
b1110001 -
b1110001 ;
b1110001 >
b1110000 .
b1110000 :
b1110000 =
b1101111 /
b1101111 9
b1101111 <
b1101110 A
b1101101 @
b1101100 ?
b1101000 (
b1101000 B
b1100010 ,
b1100010 1
b1100010 H
b1100010 L
b1101001 2
b1100011 M
b11111 N
b11110 +
b11110 3
b11110 4
b11110 J
1#
#405
0#
#410
b100000000 P
b1101111 0
b11111 J
b11111 +
b11111 3
b11111 4
b100000 N
b1100010 M
b1101001 ,
b1101001 1
b1101001 H
b1101001 L
b1101000 2
b1101111 (
b1101111 B
b1110001 A
b1110000 @
b1101111 ?
b1110100 -
b1110100 ;
b1110100 >
b1110011 .
b1110011 :
b1110011 =
b1110010 /
b1110010 9
b1110010 <
b1111000 D
b1110111 %
b1110111 6
b1110111 G
b1110110 &
b1110110 7
b1110110 F
b1110101 '
b1110101 8
b1110101 E
1#
#415
0#
#420
b1101110 0
b100000000 P
b1111011 D
b1111010 %
b1111010 6
b1111010 G
b1111001 &
b1111001 7
b1111001 F
b1111000 '
b1111000 8
b1111000 E
b1110111 -
b1110111 ;
b1110111 >
b1110110 .
b1110110 :
b1110110 =
b1110101 /
b1110101 9
b1110101 <
b1110100 A
b1110011 @
b1110010 ?
b1101110 (
b1101110 B
b1101000 ,
b1101000 1
b1101000 H
b1101000 L
b1101111 2
b1101001 M
b100001 N
b100000 +
b100000 3
b100000 4
b100000 J
1#
#425
0#
#430
b100000000 P
b1110101 0
b100001 J
b100001 +
b100001 3
b100001 4
b100010 N
b1101000 M
b1101111 ,
b1101111 1
b1101111 H
b1101111 L
b1101110 2
b1110101 (
b1110101 B
b1110111 A
b1110110 @
b1110101 ?
b1111010 -
b1111010 ;
b1111010 >
b1111001 .
b1111001 :
b1111001 =
b1111000 /
b1111000 9
b1111000 <
b1111110 D
b1111101 %
b1111101 6
b1111101 G
b1111100 &
b1111100 7
b1111100 F
b1111011 '
b1111011 8
b1111011 E
1#
#435
0#
#440
b1110100 0
b100000000 P
b10000001 D
b10000000 %
b10000000 6
b10000000 G
b1111111 &
b1111111 7
b1111111 F
b1111110 '
b1111110 8
b1111110 E
b1111101 -
b1111101 ;
b1111101 >
b1111100 .
b1111100 :
b1111100 =
b1111011 /
b1111011 9
b1111011 <
b1111010 A
b1111001 @
b1111000 ?
b1110100 (
b1110100 B
b1101110 ,
b1101110 1
b1101110 H
b1101110 L
b1110101 2
b1101111 M
b100011 N
b100010 +
b100010 3
b100010 4
b100010 J
1#
#445
0#
#450
b100000000 P
b1111011 0
b100011 J
b100011 +
b100011 3
b100011 4
b100100 N
b1101110 M
b1110101 ,
b1110101 1
b1110101 H
b1110101 L
b1110100 2
b1111011 (
b1111011 B
b1111101 A
b1111100 @
b1111011 ?
b10000000 -
b10000000 ;
b10000000 >
b1111111 .
b1111111 :
b1111111 =
b1111110 /
b1111110 9
b1111110 <
b10000100 D
b10000011 %
b10000011 6
b10000011 G
b10000010 &
b10000010 7
b10000010 F
b10000001 '
b10000001 8
b10000001 E
1#
#455
0#
#460
b1111010 0
b100000000 P
b10000111 D
b10000110 %
b10000110 6
b10000110 G
b10000101 &
b10000101 7
b10000101 F
b10000100 '
b10000100 8
b10000100 E
b10000011 -
b10000011 ;
b10000011 >
b10000010 .
b10000010 :
b10000010 =
b10000001 /
b10000001 9
b10000001 <
b10000000 A
b1111111 @
b1111110 ?
b1111010 (
b1111010 B
b1110100 ,
b1110100 1
b1110100 H
b1110100 L
b1111011 2
b1110101 M
b100101 N
b100100 +
b100100 3
b100100 4
b100100 J
1#
#465
0#
#470
1O
b100000000 P
b10000001 0
b100101 J
b100101 +
b100101 3
b100101 4
b100110 N
b1110100 M
b1111011 ,
b1111011 1
b1111011 H
b1111011 L
b1111010 2
b10000001 (
b10000001 B
b10000011 A
b10000010 @
b10000001 ?
b10000110 -
b10000110 ;
b10000110 >
b10000101 .
b10000101 :
b10000101 =
b10000100 /
b10000100 9
b10000100 <
b10001010 D
b10001001 %
b10001001 6
b10001001 G
b10001000 &
b10001000 7
b10001000 F
b10000111 '
b10000111 8
b10000111 E
1#
#475
0#
#480
0O
b10000000 0
b100000000 P
b10001101 D
b10001100 %
b10001100 6
b10001100 G
b10001011 &
b10001011 7
b10001011 F
b10001010 '
b10001010 8
b10001010 E
b10001001 -
b10001001 ;
b10001001 >
b10001000 .
b10001000 :
b10001000 =
b10000111 /
b10000111 9
b10000111 <
b10000110 A
b10000101 @
b10000100 ?
b10000000 (
b10000000 B
b1111010 ,
b1111010 1
b1111010 H
b1111010 L
b10000001 2
b1111011 M
1)
b100110 +
b100110 3
b100110 4
b100110 J
1#
#485
0#
#490
b100000000 P
b10000111 0
b100111 J
0*
b100111 +
b100111 3
b100111 4
0)
b100111 N
b1111010 M
b10000001 ,
b10000001 1
b10000001 H
b10000001 L
b10000000 2
b10000111 (
b10000111 B
b10001001 A
b10001000 @
b10000111 ?
b10001100 -
b10001100 ;
b10001100 >
b10001011 .
b10001011 :
b10001011 =
b10001010 /
b10001010 9
b10001010 <
b10010000 D
b10001111 %
b10001111 6
b10001111 G
b10001110 &
b10001110 7
b10001110 F
b10001101 '
b10001101 8
b10001101 E
1#
#495
0#
#500
b10000110 0
b100000000 P
b10010011 D
b10010010 %
b10010010 6
b10010010 G
b10010001 &
b10010001 7
b10010001 F
b10010000 '
b10010000 8
b10010000 E
b10001111 -
b10001111 ;
b10001111 >
b10001110 .
b10001110 :
b10001110 =
b10001101 /
b10001101 9
b10001101 <
b10001100 A
b10001011 @
b10001010 ?
b10000110 (
b10000110 B
b10000000 ,
b10000000 1
b10000000 H
b10000000 L
b10000111 2
b10000001 M
b101000 N
1*
1#
#505
0#
#510
b100000000 P
b10001101 0
b101000 J
b101000 +
b101000 3
b101000 4
b101001 N
b10000000 M
b10000111 ,
b10000111 1
b10000111 H
b10000111 L
b10000110 2
b10001101 (
b10001101 B
b10001111 A
b10001110 @
b10001101 ?
b10010010 -
b10010010 ;
b10010010 >
b10010001 .
b10010001 :
b10010001 =
b10010000 /
b10010000 9
b10010000 <
b10010110 D
b10010101 %
b10010101 6
b10010101 G
b10010100 &
b10010100 7
b10010100 F
b10010011 '
b10010011 8
b10010011 E
1#
#515
0#
#520
b10001100 0
b100000000 P
b10011001 D
b10011000 %
b10011000 6
b10011000 G
b10010111 &
b10010111 7
b10010111 F
b10010110 '
b10010110 8
b10010110 E
b10010101 -
b10010101 ;
b10010101 >
b10010100 .
b10010100 :
b10010100 =
b10010011 /
b10010011 9
b10010011 <
b10010010 A
b10010001 @
b10010000 ?
b10001100 (
b10001100 B
b10000110 ,
b10000110 1
b10000110 H
b10000110 L
b10001101 2
b10000111 M
b101010 N
b101001 +
b101001 3
b101001 4
b101001 J
1#
#525
0#
#530
b100000000 P
b10010011 0
b101010 J
b101010 +
b101010 3
b101010 4
b101011 N
b10000110 M
b10001101 ,
b10001101 1
b10001101 H
b10001101 L
b10001100 2
b10010011 (
b10010011 B
b10010101 A
b10010100 @
b10010011 ?
b10011000 -
b10011000 ;
b10011000 >
b10010111 .
b10010111 :
b10010111 =
b10010110 /
b10010110 9
b10010110 <
b10011100 D
b10011011 %
b10011011 6
b10011011 G
b10011010 &
b10011010 7
b10011010 F
b10011001 '
b10011001 8
b10011001 E
1#
#535
0#
#540
b10010010 0
b100000000 P
b10011111 D
b10011110 %
b10011110 6
b10011110 G
b10011101 &
b10011101 7
b10011101 F
b10011100 '
b10011100 8
b10011100 E
b10011011 -
b10011011 ;
b10011011 >
b10011010 .
b10011010 :
b10011010 =
b10011001 /
b10011001 9
b10011001 <
b10011000 A
b10010111 @
b10010110 ?
b10010010 (
b10010010 B
b10001100 ,
b10001100 1
b10001100 H
b10001100 L
b10010011 2
b10001101 M
b101100 N
b101011 +
b101011 3
b101011 4
b101011 J
1#
#545
0#
#550
b100000000 P
b10011001 0
b101100 J
b101100 +
b101100 3
b101100 4
b101101 N
b10001100 M
b10010011 ,
b10010011 1
b10010011 H
b10010011 L
b10010010 2
b10011001 (
b10011001 B
b10011011 A
b10011010 @
b10011001 ?
b10011110 -
b10011110 ;
b10011110 >
b10011101 .
b10011101 :
b10011101 =
b10011100 /
b10011100 9
b10011100 <
b10100010 D
b10100001 %
b10100001 6
b10100001 G
b10100000 &
b10100000 7
b10100000 F
b10011111 '
b10011111 8
b10011111 E
1#
#555
0#
#560
b10011000 0
b100000000 P
b10100101 D
b10100100 %
b10100100 6
b10100100 G
b10100011 &
b10100011 7
b10100011 F
b10100010 '
b10100010 8
b10100010 E
b10100001 -
b10100001 ;
b10100001 >
b10100000 .
b10100000 :
b10100000 =
b10011111 /
b10011111 9
b10011111 <
b10011110 A
b10011101 @
b10011100 ?
b10011000 (
b10011000 B
b10010010 ,
b10010010 1
b10010010 H
b10010010 L
b10011001 2
b10010011 M
b101110 N
b101101 +
b101101 3
b101101 4
b101101 J
1#
#565
0#
#570
b100000000 P
b10011111 0
b101110 J
b101110 +
b101110 3
b101110 4
b101111 N
b10010010 M
b10011001 ,
b10011001 1
b10011001 H
b10011001 L
b10011000 2
b10011111 (
b10011111 B
b10100001 A
b10100000 @
b10011111 ?
b10100100 -
b10100100 ;
b10100100 >
b10100011 .
b10100011 :
b10100011 =
b10100010 /
b10100010 9
b10100010 <
b10101000 D
b10100111 %
b10100111 6
b10100111 G
b10100110 &
b10100110 7
b10100110 F
b10100101 '
b10100101 8
b10100101 E
1#
#575
0#
