tb_top.vcd
$date
	Sat Nov  8 21:19:59 2025
$end
$version
	Icarus Verilog
$end
$timescale
	1s
$end
$scope module tb_top $end
$var wire 1 ! done_sbox $end
$var parameter 32 " CLK_PERIOD $end
$var reg 1 # clk $end
$var reg 1 $ rst $end
$scope module inst_top $end
$var wire 1 # clk $end
$var wire 1 $ rst $end
$var wire 32 % val3 [31:0] $end
$var wire 32 & val2 [31:0] $end
$var wire 32 ' val1 [31:0] $end
$var wire 23 ( v_reg [22:0] $end
$var wire 1 ) seen_flag $end
$var wire 23 * ex3 [22:0] $end
$var wire 23 + ex2 [22:0] $end
$var wire 23 , ex1 [22:0] $end
$var wire 1 ! done_sbox $end
$var wire 1 - data_valid $end
$var wire 8 . count [7:0] $end
$var wire 8 / V [7:0] $end
$scope module FF_inst $end
$var wire 1 # clk $end
$var wire 8 0 mix_data [7:0] $end
$var wire 1 $ rst $end
$var reg 8 1 V [7:0] $end
$var reg 8 2 data_ff [7:0] $end
$upscope $end
$scope module checker_inst $end
$var wire 1 # clk $end
$var wire 1 $ rst $end
$var wire 1 ) seen_single $end
$var wire 8 3 count [7:0] $end
$var reg 1 - data_valid $end
$upscope $end
$scope module counter_inst $end
$var wire 1 # clk $end
$var wire 1 - enable_counter $end
$var wire 1 $ rst $end
$var reg 8 4 count [7:0] $end
$upscope $end
$scope module extractor_inst $end
$var wire 1 # clk $end
$var wire 1 5 enable_extract $end
$var wire 1 $ rst $end
$var wire 32 6 val3 [31:0] $end
$var wire 32 7 val2 [31:0] $end
$var wire 32 8 val1 [31:0] $end
$var reg 23 9 ex1 [22:0] $end
$var reg 23 : ex2 [22:0] $end
$var reg 23 ; ex3 [22:0] $end
$var reg 46 < k1 [45:0] $end
$var reg 46 = k2 [45:0] $end
$var reg 46 > k3 [45:0] $end
$var reg 46 ? k4 [45:0] $end
$var reg 46 @ k5 [45:0] $end
$var reg 46 A k6 [45:0] $end
$var reg 46 B k7 [45:0] $end
$var integer 32 C i [31:0] $end
$upscope $end
$scope module mixer_inst $end
$var wire 1 # clk $end
$var wire 23 D ex1 [22:0] $end
$var wire 23 E ex2 [22:0] $end
$var wire 23 F ex3 [22:0] $end
$var wire 1 $ rst $end
$var reg 23 G D1 [22:0] $end
$var reg 23 H D2 [22:0] $end
$var reg 23 I D3 [22:0] $end
$var reg 23 J v_reg [22:0] $end
$upscope $end
$scope module read_inst $end
$var wire 1 # clk $end
$var wire 1 K enable_read $end
$var wire 1 $ rst $end
$var reg 8 L index [7:0] $end
$var reg 32 M val1 [31:0] $end
$var reg 32 N val2 [31:0] $end
$var reg 32 O val3 [31:0] $end
$upscope $end
$scope module sbox_inst $end
$var wire 1 # clk $end
$var wire 8 P data_in [7:0] $end
$var wire 1 - enable_write $end
$var wire 1 $ rst $end
$var wire 1 ! done_sbox $end
$var reg 8 Q data_out [7:0] $end
$var reg 8 R index [7:0] $end
$var integer 32 S i [31:0] $end
$upscope $end
$scope module seen_inst $end
$var wire 1 # clk $end
$var wire 8 T data_in [7:0] $end
$var wire 1 $ rst $end
$var reg 8 U index [7:0] $end
$var reg 8 V next_index [7:0] $end
$var reg 1 ) seen_flag $end
$var reg 1 W unvalid $end
$var integer 32 X i [31:0] $end
$upscope $end
$upscope $end
$upscope $end
$enddefinitions $end
$comment Show the parameter values. $end
$dumpall
b1010 "
$end
#0
$dumpvars
b100000000 X
1W
b0 V
b0 U
b0 T
b100000000 S
b0 R
bx Q
b0 P
b0 O
b0 N
b0 M
b0 L
1K
b0 J
b0 I
b0 H
b0 G
b0 F
b0 E
b0 D
b11 C
b0 B
b0 A
b0 @
b0 ?
b0 >
b0 =
b0 <
b0 ;
b0 :
b0 9
b0 8
b0 7
b0 6
15
b0 4
b0 3
b0 2
b0 1
b0 0
b0 /
b0 .
0-
b0 ,
b0 +
b0 *
0)
b0 (
b0 '
b0 &
b0 %
1$
1#
0!
$end
#5
0#
#10
b100000000 S
b100000000 X
b11 C
1#
#15
0#
#20
b11 L
b1001001001000110011011101001011 %
b1001001001000110011011101001011 6
b1001001001000110011011101001011 O
b1001001000001001010011000010110 &
b1001001000001001010011000010110 7
b1001001000001001010011000010110 N
b1000110000101100001101101011010 '
b1000110000101100001101101011010 8
b1000110000101100001101101011010 M
1)
1-
b11 C
1#
0$
#25
0#
#30
b1 R
0-
b1 .
b1 3
b1 4
b110 L
b1001000011000100001101110111100 %
b1001000011000100001101110111100 6
b1001000011000100001101110111100 O
b1001001010110100011100100111001 &
b1001001010110100011100100111001 7
b1001001010110100011100100111001 N
b1001000111010110001001110001000 '
b1001000111010110001001110001000 8
b1001000111010110001001110001000 M
b11 C
1#
#35
0#
#40
b1001 L
b1001000110110110110001111100000 %
b1001000110110110110001111100000 6
b1001000110110110110001111100000 O
b1001000000011011010001110001111 &
b1001000000011011010001110001111 7
b1001000000011011010001110001111 N
b1001000011101111101101100111110 '
b1001000011101111101101100111110 8
b1001000011101111101101100111110 M
b101100001101101011010 =
b10001100 <
b100101100001101101011010 >
b1101 ?
b11 C
1#
#45
0#
#50
b1001011000011011010110100000000000000 @
b10010 ?
b111010110001001110001000 >
b11010110001001110001000 =
b10010001 <
b1100 L
b1000111101001101101010001111110 %
b1000111101001101101010001111110 6
b1000111101001101101010001111110 O
b1001000001101110011000001010101 &
b1001000001101110011000001010101 7
b1001000001101110011000001010101 N
b1001000110100001011100000111101 '
b1001000110100001011100000111101 8
b1001000110100001011100000111101 M
b11 C
1#
#55
0#
#60
b1111 L
b1001000100110001011101011101000 %
b1001000100110001011101011101000 6
b1001000100110001011101011101000 O
b1001001000010001101100111101000 &
b1001001000010001101100111101000 7
b1001001000010001101100111101000 N
b1001001001011101100010010110111 '
b1001001001011101100010010110111 8
b1001001001011101100010010110111 M
b11101111101101100111110 =
b10010000 <
b111101111101101100111110 >
b10001 ?
b111010110001001110001000000000000000000000 @
b100100101001011010110101 A
b11 C
1#
#65
0#
#70
b1101000101 B
b1010101111 *
b1010101111 ;
b1010101111 F
b101110111 +
b101110111 :
b101110111 E
b1101000101 ,
b1101000101 9
b1101000101 D
b11100101100100010001001011010 A
b11110111110110110011111000000000000000000 @
b10010 ?
b110100001011100000111101 >
b10100001011100000111101 =
b10010001 <
b10010 L
b1001000111011100011001100110111 %
b1001000111011100011001100110111 6
b1001000111011100011001100110111 O
b1001000000000011101001101110010 &
b1001000000000011101001101110010 7
b1001000000000011101001101110010 N
b1001001001100110010101010111011 '
b1001001001100110010101010111011 8
b1001001001100110010101010111011 M
b11 C
1#
#75
0#
#80
b10101 L
b1001000110110110101001000001110 %
b1001000110110110101001000001110 6
b1001000110110110101001000001110 O
b1001000011111110010001110110101 &
b1001000011111110010001110110101 7
b1001000011111110010001110110101 N
b1001001001001000010011000100101 '
b1001001001001000010011000100101 8
b1001001001001000010011000100101 M
b1011101100010010110111 =
b10010010 <
b101011101100010010110111 >
b10011 ?
b110100001011100000111101000000000000000000 @
b1111001000001100000110101000 A
b11111010 B
b1110101001 *
b1110101001 ;
b1110101001 F
b1000110010 +
b1000110010 :
b1000110010 E
b11111010 ,
b11111010 9
b11111010 D
b10101111 I
b1110111 H
b1000101 G
b11 C
1#
#85
0#
#90
b1 V
b100000000 X
0W
b10011101 T
b10011101 0
b10011101 (
b10011101 J
b10101001 I
b110010 H
b11111010 G
b1111001000 B
b0 *
b0 ;
b0 F
b11101010 +
b11101010 :
b11101010 E
b1111001000 ,
b1111001000 9
b1111001000 D
b11001011110100111110101110010 A
b1010111011000100101101110000000000000000000 @
b101100110010101010111011 >
b1100110010101010111011 =
b11000 L
b1001001000111011010100100011101 %
b1001001000111011010100100011101 6
b1001001000111011010100100011101 O
b1001000110000011100100000001000 &
b1001000110000011100100000001000 7
b1001000110000011100100000001000 N
b1001001001001001000010011111100 '
b1001001001001001000010011111100 8
b1001001001001001000010011111100 M
b11 C
1#
#95
0#
#100
b10 V
b1100001 T
b1100001 0
0W
b100000000 X
b11011 L
b1000111010111010100000010000100 %
b1000111010111010100000010000100 6
b1000111010111010100000010000100 O
b1001001000111110110011101100100 &
b1001001000111110110011101100100 7
b1001001000111110110011101100100 N
b1001001000010101010101111001000 '
b1001001000010101010101111001000 8
b1001001000010101010101111001000 M
b1001000010011000100101 =
b101001000010011000100101 >
b1011001100101010101110110000000000000000000 @
b101010101010110000011010101101 A
b1110001010 B
b1111011000 *
b1111011000 ;
b1111011000 F
b101001000 +
b101001000 :
b101001000 E
b1110001010 ,
b1110001010 9
b1110001010 D
b0 I
b11101010 H
b11001000 G
b1100001 (
b1100001 J
b10011101 2
b1 U
0)
b11 C
1#
#105
0#
#110
b100000000 X
b11 V
b100010 T
b100010 0
1-
b10 U
b10011101 /
b10011101 1
b10011101 P
b1100001 2
b100010 (
b100010 J
b11011000 I
b1001000 H
b10001010 G
b110110101 B
b11111010 *
b11111010 ;
b11111010 F
b111110100 +
b111110100 :
b111110100 E
b110110101 ,
b110110101 9
b110110101 D
b101011101111011110111010100111 A
b1010010000100110001001010000000000000000000 @
b101001001000010011111100 >
b1001001000010011111100 =
b11110 L
b1001001001010001101010010010011 %
b1001001001010001101010010010011 6
b1001001001010001101010010010011 O
b1001001000000001110100001000000 &
b1001001000000001110100001000000 7
b1001001000000001110100001000000 N
b1001001000101000110000000010110 '
b1001001000101000110000000010110 8
b1001001000101000110000000010110 M
b11 C
1#
#115
0#
#120
b100 V
b11010 T
b11010 0
0W
b100000000 X
b100001 L
b1001001000010011101101101111000 %
b1001001000010011101101101111000 6
b1001001000010011101101101111000 O
b1000110101000101011101111101101 &
b1000110101000101011101111101101 7
b1000110101000101011101111101101 N
b1001000100111111100110101010010 '
b1001000100111111100110101010010 8
b1001000100111111100110101010010 M
b10101010101111001000 =
b100010101010101111001000 >
b1010010010000100111111000000000000000000000 @
b101000000100110101000000001000 A
b1010101111 B
b1011001110 *
b1011001110 ;
b1011001110 F
b1100001101 +
b1100001101 :
b1100001101 E
b1010101111 ,
b1010101111 9
b1010101111 D
b11111010 I
b11110100 H
b10110101 G
b11010 (
b11010 J
b1100001 /
b1100001 1
b1100001 P
b100010 2
b11 U
b10 .
b10 3
b10 4
b10 R
b11 C
1#
#125
0#
#130
b100000000 X
b101 V
b10111011 T
b10111011 0
b11 R
b11 .
b11 3
b11 4
b100 U
b100010 /
b100010 1
b100010 P
b11010 2
b10111011 (
b10111011 J
b11001110 I
b1101 H
b10101111 G
b100111000 B
b110110101 *
b110110101 ;
b110110101 F
b1100111100 +
b1100111100 :
b1100111100 E
b100111000 ,
b100111000 9
b100111000 D
b101000001010100111011110000110 A
b1000101010101011110010000000000000000000000 @
b100101000110000000010110 >
b101000110000000010110 =
b100100 L
b1001000110100101010111111110000 %
b1001000110100101010111111110000 6
b1001000110100101010111111110000 O
b1001001000101111010101110011101 &
b1001001000101111010101110011101 7
b1001001000101111010101110011101 N
b1001000100101110100111110100001 '
b1001000100101110100111110100001 8
b1001000100101110100111110100001 M
b11 C
1#
#135
0#
#140
b110 V
b1101100 T
b1101100 0
0W
b100000000 X
b100111 L
b1001001001010001111100010010111 %
b1001001001010001111100010010111 6
b1001001001010001111100010010111 O
b1001001000011010011000111010101 &
b1001001000011010011000111010101 7
b1001001000011010011000111010101 N
b1001001000110100011100101011000 '
b1001001000110100011100101011000 8
b1001001000110100011100101011000 M
b111111100110101010010 =
b10010001 <
b100111111100110101010010 >
b10010 ?
b1001010001100000000101100000000000000000000 @
b100001110110101111000001010100 A
b1011101110 B
b1100101100 *
b1100101100 ;
b1100101100 F
b11111010 +
b11111010 :
b11111010 E
b1011101110 ,
b1011101110 9
b1011101110 D
b10110101 I
b111100 H
b111000 G
b1101100 (
b1101100 J
b11010 /
b11010 1
b11010 P
b10111011 2
b101 U
b100 .
b100 3
b100 4
b100 R
b11 C
1#
#145
0#
#150
b100000000 X
b111 V
b10110001 T
b10110001 0
b101 R
b101 .
b101 3
b101 4
b110 U
b10111011 /
b10111011 1
b10111011 P
b1101100 2
b10110001 (
b10110001 J
b101100 I
b11111010 H
b11101110 G
b111110100 B
b1000000011 *
b1000000011 ;
b1000000011 F
b111110100 ,
b111110100 9
b111110100 D
b100100001110010111010101011111 A
b100111111100110101010010000000000000000000 @
b100101110100111110100001 >
b101110100111110100001 =
b101010 L
b1001001000111110000111101001000 %
b1001001000111110000111101001000 6
b1001001000111110000111101001000 O
b1001000110111011111100001101010 &
b1001000110111011111100001101010 7
b1001000110111011111100001101010 N
b1001001010000111110010100101111 '
b1001001010000111110010100101111 8
b1001001010000111110010100101111 M
b11 C
1#
#155
0#
#160
b1000 V
b111000 T
b111000 0
0W
b100000000 X
b101101 L
b1001000001110001100111001111101 %
b1001000001110001100111001111101 6
b1001000001110001100111001111101 O
b1001000000100001011010110011101 &
b1001000000100001011010110011101 7
b1001000000100001011010110011101 N
b1001001010100100001101111000110 '
b1001001010100100001101111000110 8
b1001001010100100001101111000110 M
b110100011100101011000 =
b10010010 <
b100110100011100101011000 >
b10011 ?
b100101110100111110100001000000000000000000 @
b10011100000011101000001000010 A
b101110111 B
b10111011 *
b10111011 ;
b10111011 F
b0 +
b0 :
b0 E
b101110111 ,
b101110111 9
b101110111 D
b11 I
b11110100 G
b111000 (
b111000 J
b1101100 /
b1101100 1
b1101100 P
b10110001 2
b111 U
b110 .
b110 3
b110 4
b110 R
b11 C
1#
#165
0#
#170
b100000000 X
b1001 V
b1101 T
b1101 0
b111 R
b111 .
b111 3
b111 4
b1000 U
b10110001 /
b10110001 1
b10110001 P
b111000 2
b1101 (
b1101 J
b10111011 I
b0 H
b1110111 G
b1000110010 B
b111110100 *
b111110100 ;
b111110100 F
b1111000010 +
b1111000010 :
b1111000010 E
b1000110010 ,
b1000110010 9
b1000110010 D
b10010011110000111100001100111 A
b1001101000111001010110000000000000000000000 @
b110000111110010100101111 >
b10000111110010100101111 =
b110000 L
b1001001000110000000010011011101 %
b1001001000110000000010011011101 6
b1001001000110000000010011011101 O
b1001000101101001100011101000001 &
b1001000101101001100011101000001 7
b1001000101101001100011101000001 N
b1001001000110011000010101011001 '
b1001001000110011000010101011001 8
b1001001000110011000010101011001 M
b11 C
1#
#175
0#
#180
b1010 V
b11001100 T
b11001100 0
0W
b100000000 X
b110011 L
b1001000000001100010001010110011 %
b1001000000001100010001010110011 6
b1001000000001100010001010110011 O
b1001001001110011000001010000011 &
b1001001001110011000001010000011 7
b1001001001110011000001010000011 N
b1001000010100010100101011010100 '
b1001000010100010100101011010100 8
b1001000010100010100101011010100 M
b10100100001101111000110 =
b110100100001101111000110 >
b1100001111100101001011110000000000000000000 @
b100101101001101111111111111100 A
b11111 B
b1100101100 +
b1100101100 :
b1100101100 E
b11111 ,
b11111 9
b11111 D
b11110100 I
b11000010 H
b110010 G
b11001100 (
b11001100 J
b111000 /
b111000 1
b111000 P
b1101 2
b1001 U
b1000 .
b1000 3
b1000 4
b1000 R
b11 C
1#
#185
0#
#190
b100000000 X
b1011 V
b100 T
b100 0
b1001 R
b1001 .
b1001 3
b1001 4
b1010 U
b1101 /
b1101 1
b1101 P
b11001100 2
b100 (
b100 J
b101100 H
b11111 G
b111110100 B
b110110101 *
b110110101 ;
b110110101 F
b100111000 +
b100111000 :
b100111000 E
b111110100 ,
b111110100 9
b111110100 D
b101111110100110111001111111001 A
b1101001000011011110001100000000000000000000 @
b100110011000010101011001 >
b110011000010101011001 =
b110110 L
b1000111000011100010111110111101 %
b1000111000011100010111110111101 6
b1000111000011100010111110111101 O
b1000111101101001101011010111001 &
b1000111101101001101011010111001 7
b1000111101101001101011010111001 N
b1000111110001001000010110101100 '
b1000111110001001000010110101100 8
b1000111110001001000010110101100 M
b11 C
1#
#195
0#
#200
b1100 V
b11000111 T
b11000111 0
0W
b100000000 X
b111001 L
b1001000011000100100001011110011 %
b1001000011000100100001011110011 6
b1001000011000100100001011110011 O
b1000111001100011011001111011000 &
b1000111001100011011001111011000 7
b1000111001100011011001111011000 N
b1001000100100110001010011011010 '
b1001000100100110001010011011010 8
b1001000100100110001010011011010 M
b10100010100101011010100 =
b10010000 <
b110100010100101011010100 >
b10001 ?
b1001100110000101010110010000000000000000000 @
b110011010010111100011111010111 A
b1110101001 B
b111110100 *
b111110100 ;
b111110100 F
b1110101001 ,
b1110101001 9
b1110101001 D
b10110101 I
b111000 H
b11110100 G
b11000111 (
b11000111 J
b11001100 /
b11001100 1
b11001100 P
b100 2
b1011 U
b1010 .
b1010 3
b1010 4
b1010 R
b11 C
1#
#205
0#
#210
b100000000 X
b1101 V
b1111001 T
b1111001 0
b1011 R
b1011 .
b1011 3
b1011 4
b1100 U
b100 /
b100 1
b100 P
b11000111 2
b1111001 (
b1111001 J
b11110100 I
b10101001 G
b101110111 B
b1110111001 *
b1110111001 ;
b1110111001 F
b111000101 +
b111000101 :
b111000101 E
b101110111 ,
b101110111 9
b101110111 D
b100101011110110000111000111010 A
b11010001010010101101010000000000000000000 @
b10000 ?
b110001001000010110101100 >
b10001001000010110101100 =
b10001111 <
b111100 L
b1001000101010011110010110100100 %
b1001000101010011110010110100100 6
b1001000101010011110010110100100 O
b1001000111000110101101101100101 &
b1001000111000110101101101100101 7
b1001000111000110101101101100101 N
b1001000101100010001011111000110 '
b1001000101100010001011111000110 8
b1001000101100010001011111000110 M
b11 C
1#
#215
0#
#220
b1110 V
b1100101 T
b1100101 0
0W
b100000000 X
b111111 L
b1001001001011110100000010101111 %
b1001001001011110100000010101111 6
b1001001001011110100000010101111 O
b1001000100010100001110110111001 &
b1001000100010100001110110111001 7
b1001000100010100001110110111001 N
b1000111111011110101010010111101 '
b1000111111011110101010010111101 8
b1000111111011110101010010111101 M
b100110001010011011010 =
b10010001 <
b100100110001010011011010 >
b10010 ?
b1100010010000101101011000000000000000000 @
b1100110001100011000100110000 A
b1000110010 B
b1100101100 *
b1100101100 ;
b1100101100 F
b11111 +
b11111 :
b11111 E
b1000110010 ,
b1000110010 9
b1000110010 D
b10111001 I
b11000101 H
b1110111 G
b1100101 (
b1100101 J
b11000111 /
b11000111 1
b11000111 P
b1111001 2
b1101 U
b1100 .
b1100 3
b1100 4
b1100 R
b11 C
1#
#225
0#
#230
b100000000 X
b1111 V
b1011 T
b1011 0
b1101 R
b1101 .
b1101 3
b1101 4
b1110 U
b1111001 /
b1111001 1
b1111001 P
b1100101 2
b1011 (
b1011 J
b101100 I
b11111 H
b110010 G
b100111000 B
b1100011100 *
b1100011100 ;
b1100011100 F
b10111011 +
b10111011 :
b10111011 E
b100111000 ,
b100111000 9
b100111000 D
b101111111110101010001001111 A
b100100110001010011011010000000000000000000 @
b101100010001011111000110 >
b1100010001011111000110 =
b1000010 L
b1001001010100001101011110101111 %
b1001001010100001101011110101111 6
b1001001010100001101011110101111 O
b1001000100010010100001011000101 &
b1001000100010010100001011000101 7
b1001000100010010100001011000101 N
b1001000101010100010001010011011 '
b1001000101010100010001010011011 8
b1001000101010100010001010011011 M
b11 C
1#
#235
0#
#240
b10000 V
b1 T
b1 0
0W
b100000000 X
b1000101 L
b1001001010101110100110101000001 %
b1001001010101110100110101000001 6
b1001001010101110100110101000001 O
b1000100010110100011011110011100 &
b1000100010110100011011110011100 7
b1000100010110100011011110011100 N
b1001001001111000100111010111100 '
b1001001001111000100111010111100 8
b1001001001111000100111010111100 M
b11011110101010010111101 =
b10001111 <
b111011110101010010111101 >
b10000 ?
b101100010001011111000110000000000000000000 @
b10001111101000100101110011100 A
b101010111 B
b1011100010 *
b1011100010 ;
b1011100010 F
b110111101 +
b110111101 :
b110111101 E
b101010111 ,
b101010111 9
b101010111 D
b11100 I
b10111011 H
b111000 G
b1 (
b1 J
b1100101 /
b1100101 1
b1100101 P
b1011 2
b1111 U
b1110 .
b1110 3
b1110 4
b1110 R
b11 C
1#
#245
0#
#250
b100000000 X
b10001 V
b10011111 T
b10011111 0
b1111 R
b1111 .
b1111 3
b1111 4
b10000 U
b1011 /
b1011 1
b1011 P
b1 2
b10011111 (
b10011111 J
b11100010 I
b10111101 H
b1010111 G
b1100101100 B
b1100011100 *
b1100011100 ;
b1100011100 F
b1101001011 +
b1101001011 :
b1101001011 E
b1100101100 ,
b1100101100 9
b1100101100 D
b10101100111100010011011101011 A
b1110111101010100101111010000000000000000 @
b10010 ?
b101010100010001010011011 >
b1010100010001010011011 =
b10010001 <
b1001000 L
b1001000011111010001000011001001 %
b1001000011111010001000011001001 6
b1001000011111010001000011001001 O
b1001000000001010000000101001001 &
b1001000000001010000000101001001 7
b1001000000001010000000101001001 N
b1001000110000001111111110000100 '
b1001000110000001111111110000100 8
b1001000110000001111111110000100 M
b11 C
1#
#255
0#
#260
b10010 V
b1000 T
b1000 0
0W
b100000000 X
b1001011 L
b1001001000110000110011011010100 %
b1001001000110000110011011010100 6
b1001001000110000110011011010100 O
b1001001000010011100100011110001 &
b1001001000010011100100011110001 7
b1001001000010011100100011110001 N
b1001001000010100011101100001001 '
b1001001000010100011101100001001 8
b1001001000010100011101100001001 M
b1111000100111010111100 =
b10010010 <
b101111000100111010111100 >
b10011 ?
b101010100010001010011011000000000000000000 @
b111010011011100011000000100 A
b10111011 B
b1111101 *
b1111101 ;
b1111101 F
b10011100 +
b10011100 :
b10011100 E
b10111011 ,
b10111011 9
b10111011 D
b11100 I
b1001011 H
b101100 G
b1000 (
b1000 J
b1 /
b1 1
b1 P
b10011111 2
b10001 U
b10000 .
b10000 3
b10000 4
b10000 R
b11 C
1#
#265
0#
#270
b100000000 X
b10011 V
b1111011 T
b1111011 0
b10001 R
b10001 .
b10001 3
b10001 4
b10010 U
b10011111 /
b10011111 1
b10011111 P
b1000 2
b1111011 (
b1111011 J
b1111101 I
b10011100 H
b10111011 G
b111011100 B
b1110101001 *
b1110101001 ;
b1110101001 F
b1100001101 +
b1100001101 :
b1100001101 E
b111011100 ,
b111011100 9
b111011100 D
b10100110001001011100101101011 A
b1011110001001110101111000000000000000000000 @
b10010 ?
b110000001111111110000100 >
b10000001111111110000100 =
b10010001 <
b1001110 L
b1001000101111011110100100010101 %
b1001000101111011110100100010101 6
b1001000101111011110100100010101 O
b1001000100001110010111110100011 &
b1001000100001110010111110100011 7
b1001000100001110010111110100011 N
b1001001010100011011101001110101 '
b1001001010100011011101001110101 8
b1001001010100011011101001110101 M
b11 C
1#
#275
0#
#280
b10100 V
b1011010 T
b1011010 0
0W
b100000000 X
b1010001 L
b1001001001110101011101011101010 %
b1001001001110101011101011101010 6
b1001001001110101011101011101010 O
b1001000001001000110111001010110 &
b1001000001001000110111001010110 7
b1001000001001000110111001010110 N
b1000111101001001000010101100111 '
b1000111101001001000010101100111 8
b1000111101001001000010101100111 M
b10100011101100001001 =
b10010010 <
b100010100011101100001001 >
b10011 ?
b110000001111111110000100000000000000000000 @
b101101111110010011100011100110 A
b1101001011 B
b10011100 +
b10011100 :
b10011100 E
b1101001011 ,
b1101001011 9
b1101001011 D
b10101001 I
b1101 H
b11011100 G
b1011010 (
b1011010 J
b1000 /
b1000 1
b1000 P
b1111011 2
b10011 U
b10010 .
b10010 3
b10010 4
b10010 R
b11 C
1#
#285
0#
#290
b100000000 X
b10101 V
b1111000 T
b1111000 0
b10011 R
b10011 .
b10011 3
b10011 4
b10100 U
b1111011 /
b1111011 1
b1111011 P
b1011010 2
b1111000 (
b1111000 J
b10011100 H
b1001011 G
b1011101110 B
b111110 *
b111110 ;
b111110 F
b1101100100 +
b1101100100 :
b1101100100 E
b1011101110 ,
b1011101110 9
b1011101110 D
b10111100011110011000011011101 A
b1000101000111011000010010000000000000000000 @
b110100011011101001110101 >
b10100011011101001110101 =
b1010100 L
b1001000011001111000101111100010 %
b1001000011001111000101111100010 6
b1001000011001111000101111100010 O
b1001000101001100111110010011100 &
b1001000101001100111110010011100 7
b1001000101001100111110010011100 N
b1001001000100011011100101101010 '
b1001001000100011011100101101010 8
b1001001000100011011100101101010 M
b11 C
1#
#295
0#
#300
b10110 V
b1111110 T
b1111110 0
0W
b100000000 X
b1010111 L
b1001001010110011011111101100010 %
b1001001010110011011111101100010 6
b1001001010110011011111101100010 O
b1001000110010011000010000001010 &
b1001000110010011000010000001010 7
b1001000110010011000010000001010 N
b1001001000001001001111011101000 '
b1001001000001001001111011101000 8
b1001001000001001001111011101000 M
b1001001000010101100111 =
b10001111 <
b101001001000010101100111 >
b10000 ?
b1101000110111010011101010000000000000000000 @
b100001101111110110100110110010 A
b1111101 B
b10001100 *
b10001100 ;
b10001100 F
b10001100 +
b10001100 :
b10001100 E
b1111101 ,
b1111101 9
b1111101 D
b111110 I
b1100100 H
b11101110 G
b1111110 (
b1111110 J
b1011010 /
b1011010 1
b1011010 P
b1111000 2
b10101 U
b10100 .
b10100 3
b10100 4
b10100 R
b11 C
1#
#305
0#
#310
b100000000 X
b10111 V
b10110100 T
b10110100 0
b10101 R
b10101 .
b10101 3
b10101 4
b10110 U
b1111000 /
b1111000 1
b1111000 P
b1111110 2
b10110100 (
b10110100 J
b10001100 I
b10001100 H
b1111101 G
b1000110010 B
b11111010 *
b11111010 ;
b11111010 F
b111110 +
b111110 :
b111110 E
b1000110010 ,
b1000110010 9
b1000110010 D
b110011001101000000010110010000 A
b1010010010000101011001110000000000000000 @
b10011 ?
b100100011011100101101010 >
b100011011100101101010 =
b10010010 <
b1011010 L
b1001001010010110010001011001010 %
b1001001010010110010001011001010 6
b1001001010010110010001011001010 O
b1001000110010001011101101101011 &
b1001000110010001011101101101011 7
b1001000110010001011101101101011 N
b1001001010100000011000110101111 '
b1001001010100000011000110101111 8
b1001001010100000011000110101111 M
b11 C
1#
#315
0#
#320
b11000 V
b1111101 T
b1111101 0
0W
b100000000 X
b1011101 L
b1001000110000011010110011000011 %
b1001000110000011010110011000011 6
b1001000110000011010110011000011 O
b1001000010101111100011110011000 &
b1001000010101111100011110011000 7
b1001000010101111100011110011000 N
b1001001010100110110101001110100 '
b1001001010100110110101001110100 8
b1001001010100110110101001110100 M
b1001001111011101000 =
b100001001001111011101000 >
b1001000110111001011010100000000000000000000 @
b101000001010101001000110100 A
b100111000 B
b1010010000 *
b1010010000 ;
b1010010000 F
b1011101 +
b1011101 :
b1011101 E
b100111000 ,
b100111000 9
b100111000 D
b11111010 I
b111110 H
b110010 G
b1111101 (
b1111101 J
b1111110 /
b1111110 1
b1111110 P
b10110100 2
b10111 U
b10110 .
b10110 3
b10110 4
b10110 R
b11 C
1#
#325
0#
#330
b100000000 X
b11001 V
b11110110 T
b11110110 0
b10111 R
b10111 .
b10111 3
b10111 4
b11000 U
b10110100 /
b10110100 1
b10110100 P
b1111101 2
b11110110 (
b11110110 J
b10010000 I
b1011101 H
b111000 G
b1100100100 B
b1001110001 *
b1001110001 ;
b1001110001 F
b101010111 +
b101010111 :
b101010111 E
b1100100100 ,
b1100100100 9
b1100100100 D
b100011100100111100010001100001 A
b1000010010011110111010000000000000000000000 @
b110100000011000110101111 >
b10100000011000110101111 =
b1100000 L
b1001000100111000011011111010101 %
b1001000100111000011011111010101 6
b1001000100111000011011111010101 O
b1001000111111000001100000010100 &
b1001000111111000001100000010100 7
b1001000111111000001100000010100 N
b1001001000111110100010001010011 '
b1001001000111110100010001010011 8
b1001001000111110100010001010011 M
b11 C
1#
#335
0#
#340
b11010 V
b11110101 T
b11110101 0
0W
b100000000 X
b1100011 L
b1001000100111000110000100101101 %
b1001000100111000110000100101101 6
b1001000100111000110000100101101 O
b1001001001101001111011000001101 &
b1001001001101001111011000001101 7
b1001001001101001111011000001101 N
b1001000010010101100000110000000 '
b1001000010010101100000110000000 8
b1001000010010101100000110000000 M
b10100110110101001110100 =
b110100110110101001110100 >
b1101000000110001101011110000000000000000000 @
b100000011000001100101110100100 A
b1001110001 B
b1000010011 *
b1000010011 ;
b1000010011 F
b1101101011 +
b1101101011 :
b1101101011 E
b1001110001 ,
b1001110001 9
b1001110001 D
b1110001 I
b1010111 H
b100100 G
b11110101 (
b11110101 J
b1111101 /
b1111101 1
b1111101 P
b11110110 2
b11001 U
b11000 .
b11000 3
b11000 4
b11000 R
b11 C
1#
#345
0#
#350
b100000000 X
b11011 V
b10 T
b10 0
b11001 R
b11001 .
b11001 3
b11001 4
b11010 U
b11110110 /
b11110110 1
b11110110 P
b11110101 2
b10 (
b10 J
b10011 I
b1101011 H
b1110001 G
b111110100 B
b1111101 *
b1111101 ;
b1111101 F
b100111000 +
b100111000 :
b100111000 E
b111110100 ,
b111110100 9
b111110100 D
b110010110101000010000100111001 A
b1101001101101010011101000000000000000000000 @
b100111110100010001010011 >
b111110100010001010011 =
b1100110 L
b1001001000101000001101001111110 %
b1001001000101000001101001111110 6
b1001001000101000001101001111110 O
b1001000001011110100000001000001 &
b1001000001011110100000001000001 7
b1001000001011110100000001000001 N
b1001001001011010100010100000110 '
b1001001001011010100010100000110 8
b1001001001011010100010100000110 M
b11 C
1#
#355
0#
#360
b11100 V
b1001 T
b1001 0
0W
b100000000 X
b1101001 L
b1001001000010011000101000101010 %
b1001001000010011000101000101010 6
b1001001000010011000101000101010 O
b1001001010101010011110011000100 &
b1001001010101010011110011000100 7
b1001001010101010011110011000100 N
b1001000101100011101001110000000 '
b1001000101100011101001110000000 8
b1001000101100011101001110000000 M
b10010101100000110000000 =
b10010000 <
b110010101100000110000000 >
b10001 ?
b1001111101000100010100110000000000000000000 @
b110011100111010111110101010010 A
b1110101001 B
b1001110001 *
b1001110001 ;
b1001110001 F
b101010111 +
b101010111 :
b101010111 E
b1110101001 ,
b1110101001 9
b1110101001 D
b1111101 I
b111000 H
b11110100 G
b1001 (
b1001 J
b11110101 /
b11110101 1
b11110101 P
b10 2
b11011 U
b11010 .
b11010 3
b11010 4
b11010 R
b11 C
1#
#365
0#
