Feistel_block/Feistel_block.sim/sim_1/behav/xsim/tb_f_round.vcd
$date
   Sat Nov  1 15:03:24 2025
$end

$version
  2024.2.0
  $dumpfile ("tb_f_round.vcd") 
$end

$timescale
  1ps
$end

$scope module tb_f_round $end
$var reg 1 ! clk $end
$var reg 128 " in [127:0] $end
$var reg 128 # round_key [127:0] $end
$var wire 128 $ out [127:0] $end
$scope module uut $end
$var wire 1 % clk $end
$var wire 128 & state_in [127:0] $end
$var wire 128 ' round_key [127:0] $end
$var wire 128 $ state_out [127:0] $end
$var wire 128 ( sb_out [127:0] $end
$var wire 128 ) sr_out [127:0] $end
$var wire 128 * mc_out [127:0] $end
$scope module u_sub $end
$var wire 1 % clk $end
$var wire 128 & in [127:0] $end
$var reg 128 + out [127:0] $end
$scope module apply_sbox[0].u_sbox $end
$var wire 8 , in [127:120] $end
$var reg 8 - out [7:0] $end
$upscope $end
$scope module apply_sbox[1].u_sbox $end
$var wire 8 . in [119:112] $end
$var reg 8 / out [7:0] $end
$upscope $end
$scope module apply_sbox[2].u_sbox $end
$var wire 8 0 in [111:104] $end
$var reg 8 1 out [7:0] $end
$upscope $end
$scope module apply_sbox[3].u_sbox $end
$var wire 8 2 in [103:96] $end
$var reg 8 3 out [7:0] $end
$upscope $end
$scope module apply_sbox[4].u_sbox $end
$var wire 8 4 in [95:88] $end
$var reg 8 5 out [7:0] $end
$upscope $end
$scope module apply_sbox[5].u_sbox $end
$var wire 8 6 in [87:80] $end
$var reg 8 7 out [7:0] $end
$upscope $end
$scope module apply_sbox[6].u_sbox $end
$var wire 8 8 in [79:72] $end
$var reg 8 9 out [7:0] $end
$upscope $end
$scope module apply_sbox[7].u_sbox $end
$var wire 8 : in [71:64] $end
$var reg 8 ; out [7:0] $end
$upscope $end
$scope module apply_sbox[8].u_sbox $end
$var wire 8 < in [63:56] $end
$var reg 8 = out [7:0] $end
$upscope $end
$scope module apply_sbox[9].u_sbox $end
$var wire 8 > in [55:48] $end
$var reg 8 ? out [7:0] $end
$upscope $end
$scope module apply_sbox[10].u_sbox $end
$var wire 8 @ in [47:40] $end
$var reg 8 A out [7:0] $end
$upscope $end
$scope module apply_sbox[11].u_sbox $end
$var wire 8 B in [39:32] $end
$var reg 8 C out [7:0] $end
$upscope $end
$scope module apply_sbox[12].u_sbox $end
$var wire 8 D in [31:24] $end
$var reg 8 E out [7:0] $end
$upscope $end
$scope module apply_sbox[13].u_sbox $end
$var wire 8 F in [23:16] $end
$var reg 8 G out [7:0] $end
$upscope $end
$scope module apply_sbox[14].u_sbox $end
$var wire 8 H in [15:8] $end
$var reg 8 I out [7:0] $end
$upscope $end
$scope module apply_sbox[15].u_sbox $end
$var wire 8 J in [7:0] $end
$var reg 8 K out [7:0] $end
$upscope $end
$upscope $end
$scope module u_shift $end
$var wire 1 % clk $end
$var wire 128 ( sb [127:0] $end
$var reg 128 L out [127:0] $end
$upscope $end
$scope module u_mix $end
$var wire 1 % clk $end
$var wire 128 ) state_in [127:0] $end
$var reg 128 M state_out [127:0] $end
$scope function xtime $end
$var reg 8 N xtime [7:0] $end
$var reg 8 O a [7:0] $end
$upscope $end
$scope function mul2 $end
$var reg 8 P mul2 [7:0] $end
$var reg 8 Q a [7:0] $end
$upscope $end
$scope function mul3 $end
$var reg 8 R mul3 [7:0] $end
$var reg 8 S a [7:0] $end
$upscope $end
$upscope $end
$scope module u_add $end
$var wire 1 % clk $end
$var wire 128 * state_in [127:0] $end
$var wire 128 ' round_key [127:0] $end
$var reg 128 T state_out [127:0] $end
$upscope $end
$upscope $end
$upscope $end
$enddefinitions $end

#0
$dumpvars
0!
b100010010001000110011010001000101010101100110011101111000100010011001101010101011101111001100110111011110111011111111 "
b10000001000000011000001000000010100000110000001110000100000001001000010100000101100001100000011010000111000001111 #
bx $
0%
b100010010001000110011010001000101010101100110011101111000100010011001101010101011101111001100110111011110111011111111 &
b10000001000000011000001000000010100000110000001110000100000001001000010100000101100001100000011010000111000001111 '
bx (
bx )
bx *
bx +
b0 ,
b1100011 -
b10001 .
b10000010 /
b100010 0
b10010011 1
b110011 2
b11000011 3
b1000100 4
b11011 5
b1010101 6
b11111100 7
b1100110 8
b110011 9
b1110111 :
b11110101 ;
b10001000 <
b11000100 =
b10011001 >
b11101110 ?
b10101010 @
b10101100 A
b10111011 B
b11101010 C
b11001100 D
b1001011 E
b11011101 F
b11000001 G
b11101110 H
b101000 I
b11111111 J
b10110 K
bx L
bx M
bx N
bx O
bx P
bx Q
bx R
bx S
bx T
$end

#5000
1!
1%
b1100011100000101001001111000011000110111111110000110011111101011100010011101110101011001110101001001011110000010010100000010110 (
b1100011100000101001001111000011000110111111110000110011111101011100010011101110101011001110101001001011110000010010100000010110 +

#10000
0!
b11111111111111111111111111111111111111111111111111111111111111111111111111111111111111111111111111111111111111111111111111111111 "
0%
b11111111111111111111111111111111111111111111111111111111111111111111111111111111111111111111111111111111111111111111111111111111 &
b11111111 ,
b10110 -
b11111111 .
b10110 /
b11111111 0
b10110 1
b11111111 2
b10110 3
b11111111 4
b10110 5
b11111111 6
b10110 7
b11111111 8
b10110 9
b11111111 :
b10110 ;
b11111111 <
b10110 =
b11111111 >
b10110 ?
b11111111 @
b10110 A
b11111111 B
b10110 C
b11111111 D
b10110 E
b11111111 F
b10110 G
b11111111 H
b10110 I

#15000
1!
1%
b10110000101100001011000010110000101100001011000010110000101100001011000010110000101100001011000010110000101100001011000010110 (
b1100011111111001010110000010110000110111110111000101000110000111100010011000001100100111111010101001011100000100011001111101010 )
b10110000101100001011000010110000101100001011000010110000101100001011000010110000101100001011000010110000101100001011000010110 +
b1100011111111001010110000010110000110111110111000101000110000111100010011000001100100111111010101001011100000100011001111101010 L
b101100 N
b10110 O
b101100 P
b10110 Q
b10100101 R
b1100011 S

#20000
0!
b1111000011100000110100001100000010110000101000001001000010000000011100000110000001010000010000000011000000100000000100000000 "
0%
b1111000011100000110100001100000010110000101000001001000010000000011100000110000001010000010000000011000000100000000100000000 &
b1111 ,
b1110110 -
b1110 .
b10101011 /
b1101 0
b11010111 1
b1100 2
b11111110 3
b1011 4
b101011 5
b1010 6
b1100111 7
b1001 8
b1 9
b1000 :
b110000 ;
b111 <
b11000101 =
b110 >
b1101111 ?
b101 @
b1101011 A
b100 B
b11110010 C
b11 D
b1111011 E
b10 F
b1110111 G
b1 H
b1111100 I
b0 J
b1100011 K

#25000
1!
1%
b1110110101010111101011111111110001010110110011100000001001100001100010101101111011010111111001001111011011101110111110001100011 (
b10110000101100001011000010110000101100001011000010110000101100001011000010110000101100001011000010110000101100001011000010110 )
b10100011100010101110101111010010111101000011110000000110101011010111011011111011011001111111010011011001111001100111100101100011 *
b1110110101010111101011111111110001010110110011100000001001100001100010101101111011010111111001001111011011101110111110001100011 +
b10110000101100001011000010110000101100001011000010110000101100001011000010110000101100001011000010110000101100001011000010110 L
b10100011100010101110101111010010111101000011110000000110101011010111011011111011011001111111010011011001111001100111100101100011 M
b111010 R
b10110 S

#30000
0!
0%

#35000
1!
b10100011100010111110100111010001111100000011100100000000101010100111111011110010011011011111111111010101111010110111011101101100 $
1%
b1110110011001110110101101100011001010110110111101111100111111101100010101110111110101110011000001111011101010110000000111110010 )
b10110000101100001011000010110000101100001011000010110000101100001011000010110000101100001011000010110000101100001011000010110 *
b1110110011001110110101101100011001010110110111101111100111111101100010101110111110101110011000001111011101010110000000111110010 L
b10110000101100001011000010110000101100001011000010110000101100001011000010110000101100001011000010110000101100001011000010110 M
b11000110 N
b1100011 O
b11000110 P
b1100011 Q
b10011010 R
b1110110 S
b10100011100010111110100111010001111100000011100100000000101010100111111011110010011011011111111111010101111010110111011101101100 T

#40000
0!
0%

#45000
1!
b10110000101110001010000010101000100100001001100010000000100010001111000011111000111000001110100011010000110110001100000011001 $
1%
b11011000110111111100011111100011100101000101011101111001111011111000100110100101100011110110010101010000011000100110011001001101 *
b11011000110111111100011111100011100101000101011101111001111011111000100110100101100011110110010101010000011000100110011001001101 M
b10110000101110001010000010101000100100001001100010000000100010001111000011111000111000001110100011010000110110001100000011001 T

#50000
0!
0%

#55000
1!
b11011000110111101100010111100000100100000101001001111111111010001000000110101100100001010110111001011100011011110110100001000010 $
1%
b11011000110111101100010111100000100100000101001001111111111010001000000110101100100001010110111001011100011011110110100001000010 T

