Feistel_block/Feistel_block.sim/sim_1/behav/xsim/tb_subbytes.vcd
$date
   Sat Nov  1 12:03:54 2025
$end

$version
  2024.2.0
  $dumpfile ("tb_subbytes.vcd") 
$end

$timescale
  1ps
$end

$scope module tb_subbytes $end
$var reg 1 ! clk $end
$var reg 128 " round_key [127:0] $end
$var reg 128 # in [127:0] $end
$var wire 128 $ sb [127:0] $end
$var wire 128 % sh [127:0] $end
$var wire 128 & mi [127:0] $end
$var wire 128 ' out [127:0] $end
$scope module uut $end
$var wire 1 ( clk $end
$var wire 128 ) in [127:0] $end
$var reg 128 * out [127:0] $end
$scope module apply_sbox[0].u_sbox $end
$var wire 8 + in [127:120] $end
$var reg 8 , out [7:0] $end
$upscope $end
$scope module apply_sbox[1].u_sbox $end
$var wire 8 - in [119:112] $end
$var reg 8 . out [7:0] $end
$upscope $end
$scope module apply_sbox[2].u_sbox $end
$var wire 8 / in [111:104] $end
$var reg 8 0 out [7:0] $end
$upscope $end
$scope module apply_sbox[3].u_sbox $end
$var wire 8 1 in [103:96] $end
$var reg 8 2 out [7:0] $end
$upscope $end
$scope module apply_sbox[4].u_sbox $end
$var wire 8 3 in [95:88] $end
$var reg 8 4 out [7:0] $end
$upscope $end
$scope module apply_sbox[5].u_sbox $end
$var wire 8 5 in [87:80] $end
$var reg 8 6 out [7:0] $end
$upscope $end
$scope module apply_sbox[6].u_sbox $end
$var wire 8 7 in [79:72] $end
$var reg 8 8 out [7:0] $end
$upscope $end
$scope module apply_sbox[7].u_sbox $end
$var wire 8 9 in [71:64] $end
$var reg 8 : out [7:0] $end
$upscope $end
$scope module apply_sbox[8].u_sbox $end
$var wire 8 ; in [63:56] $end
$var reg 8 < out [7:0] $end
$upscope $end
$scope module apply_sbox[9].u_sbox $end
$var wire 8 = in [55:48] $end
$var reg 8 > out [7:0] $end
$upscope $end
$scope module apply_sbox[10].u_sbox $end
$var wire 8 ? in [47:40] $end
$var reg 8 @ out [7:0] $end
$upscope $end
$scope module apply_sbox[11].u_sbox $end
$var wire 8 A in [39:32] $end
$var reg 8 B out [7:0] $end
$upscope $end
$scope module apply_sbox[12].u_sbox $end
$var wire 8 C in [31:24] $end
$var reg 8 D out [7:0] $end
$upscope $end
$scope module apply_sbox[13].u_sbox $end
$var wire 8 E in [23:16] $end
$var reg 8 F out [7:0] $end
$upscope $end
$scope module apply_sbox[14].u_sbox $end
$var wire 8 G in [15:8] $end
$var reg 8 H out [7:0] $end
$upscope $end
$scope module apply_sbox[15].u_sbox $end
$var wire 8 I in [7:0] $end
$var reg 8 J out [7:0] $end
$upscope $end
$upscope $end
$scope module u $end
$var wire 1 K clk $end
$var wire 128 $ sb [127:0] $end
$var reg 128 L out [127:0] $end
$upscope $end
$scope module ut $end
$var wire 1 M clk $end
$var wire 128 % state_in [127:0] $end
$var reg 128 N state_out [127:0] $end
$scope function xtime $end
$var reg 8 O xtime [7:0] $end
$var reg 8 P a [7:0] $end
$upscope $end
$scope function mul2 $end
$var reg 8 Q mul2 [7:0] $end
$var reg 8 R a [7:0] $end
$upscope $end
$scope function mul3 $end
$var reg 8 S mul3 [7:0] $end
$var reg 8 T a [7:0] $end
$upscope $end
$upscope $end
$scope module uf $end
$var wire 128 & state_in [127:0] $end
$var wire 128 U round_key [127:0] $end
$var wire 128 ' state_out [127:0] $end
$upscope $end
$upscope $end
$enddefinitions $end

#0
$dumpvars
0!
b101011011111100001010100010110001010001010111011010010101001101010101111110111000101011000100000001001110011110100111100111100 "
b10000001000000011000001000000010100000110000001110000100000001001000010100000101100001100000011010000111000001111 #
bx $
bx %
bx &
bx '
0(
b10000001000000011000001000000010100000110000001110000100000001001000010100000101100001100000011010000111000001111 )
bx *
b0 +
b1100011 ,
b1 -
b1111100 .
b10 /
b1110111 0
b11 1
b1111011 2
b100 3
b11110010 4
b101 5
b1101011 6
b110 7
b1101111 8
b111 9
b11000101 :
b1000 ;
b110000 <
b1001 =
b1 >
b1010 ?
b1100111 @
b1011 A
b101011 B
b1100 C
b11111110 D
b1101 E
b11010111 F
b1110 G
b10101011 H
b1111 I
b1110110 J
0K
bx L
0M
bx N
bx O
bx P
bx Q
bx R
bx S
bx T
b101011011111100001010100010110001010001010111011010010101001101010101111110111000101011000100000001001110011110100111100111100 U
$end

#5000
1!
b1100011011111000111011101111011111100100110101101101111110001010011000000000001011001110010101111111110110101111010101101110110 $
1(
b1100011011111000111011101111011111100100110101101101111110001010011000000000001011001110010101111111110110101111010101101110110 *
1K
1M

#10000
0!
b1111000011100000110100001100000010110000101000001001000010000000011100000110000001010000010000000011000000100000000100000000 #
0(
b1111000011100000110100001100000010110000101000001001000010000000011100000110000001010000010000000011000000100000000100000000 )
b1111 +
b1110110 ,
b1110 -
b10101011 .
b1101 /
b11010111 0
b1100 1
b11111110 2
b1011 3
b101011 4
b1010 5
b1100111 6
b1001 7
b1 8
b1000 9
b110000 :
b111 ;
b11000101 <
b110 =
b1101111 >
b101 ?
b1101011 @
b100 A
b11110010 B
b11 C
b1111011 D
b10 E
b1110111 F
b1 G
b1111100 H
b0 I
b1100011 J
0K
0M

#15000
1!
b1110110101010111101011111111110001010110110011100000001001100001100010101101111011010111111001001111011011101110111110001100011 $
b1100011011010110110011101110110111100100000000110101011011110110011000011010111011101111100010111111110011111000110111100101011 %
1(
b1110110101010111101011111111110001010110110011100000001001100001100010101101111011010111111001001111011011101110111110001100011 *
1K
b1100011011010110110011101110110111100100000000110101011011110110011000011010111011101111100010111111110011111000110111100101011 L
1M
b11101100 O
b1110110 P
b11101100 Q
b1110110 R
b10100101 S
b1100011 T

#20000
0!
b11111111111111111111111111111111111111111111111111111111111111111111111111111111111111111111111111111111111111111111111111111111 #
0(
b11111111111111111111111111111111111111111111111111111111111111111111111111111111111111111111111111111111111111111111111111111111 )
b11111111 +
b10110 ,
b11111111 -
b10110 .
b11111111 /
b10110 0
b11111111 1
b10110 2
b11111111 3
b10110 4
b11111111 5
b10110 6
b11111111 7
b10110 8
b11111111 9
b10110 :
b11111111 ;
b10110 <
b11111111 =
b10110 >
b11111111 ?
b10110 @
b11111111 A
b10110 B
b11111111 C
b10110 D
b11111111 E
b10110 F
b11111111 G
b10110 H
b11111111 I
b10110 J
0K
0M

#25000
1!
b10110000101100001011000010110000101100001011000010110000101100001011000010110000101100001011000010110000101100001011000010110 $
b1110110011001110110101101100011001010110110111101111100111111101100010101110111110101110011000001111011101010110000000111110010 %
b1011100001000011001110000100111011000010101110111011001101100000101000100110011011011010010110001000101010111000110101001101010 &
b1110111010111111000100100110001010010011111001100001011000101101111101011000100011110001010010001001100100100110010010101010110 '
1(
b10110000101100001011000010110000101100001011000010110000101100001011000010110000101100001011000010110000101100001011000010110 *
1K
b1110110011001110110101101100011001010110110111101111100111111101100010101110111110101110011000001111011101010110000000111110010 L
1M
b1011100001000011001110000100111011000010101110111011001101100000101000100110011011011010010110001000101010111000110101001101010 N
b11000110 O
b1100011 P
b11000110 Q
b1100011 R
b10011010 S
b1110110 T

#30000
0!
0(
0K
0M

#35000
1!
b10110000101100001011000010110000101100001011000010110000101100001011000010110000101100001011000010110000101100001011000010110 %
b11011000110111111100011111100011100101000101011101111001111011111000100110100101100011110110010101010000011000100110011001001101 &
b11110011101000011101001011110101101111001111100110101011010010010010001001010010100110101110110101011001101011010010100101110001 '
1(
1K
b10110000101100001011000010110000101100001011000010110000101100001011000010110000101100001011000010110000101100001011000010110 L
1M
b11011000110111111100011111100011100101000101011101111001111011111000100110100101100011110110010101010000011000100110011001001101 N
b101100 O
b10110 P
b101100 Q
b10110 R
b111010 S
b10110 T

#40000
0!
0(
0K
0M

#45000
1!
b10110000101100001011000010110000101100001011000010110000101100001011000010110000101100001011000010110000101100001011000010110 &
b111101011010000000001100000000001111101011100011000100101100001011110111100001000000111001111000011111110110010101100100101010 '
1(
1K
1M
b10110000101100001011000010110000101100001011000010110000101100001011000010110000101100001011000010110000101100001011000010110 N

