code/tb_top.vcd
$date
	Sun Nov  9 16:49:02 2025
$end
$version
	Icarus Verilog
$end
$timescale
	1s
$end
$scope module tb_top $end
$var wire 1 ! done_sbox $end
$var parameter 32 " CLK_PERIOD $end
$var reg 1 # clk $end
$var reg 1 $ rst $end
$scope module inst_top $end
$var wire 1 # clk $end
$var wire 1 $ rst $end
$var wire 32 % val3 [31:0] $end
$var wire 32 & val2 [31:0] $end
$var wire 32 ' val1 [31:0] $end
$var wire 23 ( v_reg [22:0] $end
$var wire 1 ) seen_flag $end
$var wire 23 * ex3 [22:0] $end
$var wire 23 + ex2 [22:0] $end
$var wire 23 , ex1 [22:0] $end
$var wire 1 ! done_sbox $end
$var wire 1 - data_valid $end
$var wire 8 . count [7:0] $end
$var wire 8 / V [7:0] $end
$scope module FF_inst $end
$var wire 1 # clk $end
$var wire 8 0 mix_data [7:0] $end
$var wire 1 $ rst $end
$var reg 8 1 V [7:0] $end
$var reg 8 2 data_ff [7:0] $end
$upscope $end
$scope module checker_inst $end
$var wire 1 # clk $end
$var wire 1 $ rst $end
$var wire 1 ) seen_single $end
$var wire 8 3 count [7:0] $end
$var reg 1 - data_valid $end
$upscope $end
$scope module counter_inst $end
$var wire 1 # clk $end
$var wire 1 - enable_counter $end
$var wire 1 $ rst $end
$var reg 8 4 count [7:0] $end
$upscope $end
$scope module extractor_inst $end
$var wire 1 # clk $end
$var wire 1 5 enable_extract $end
$var wire 1 $ rst $end
$var wire 32 6 val3 [31:0] $end
$var wire 32 7 val2 [31:0] $end
$var wire 32 8 val1 [31:0] $end
$var reg 23 9 ex1 [22:0] $end
$var reg 23 : ex2 [22:0] $end
$var reg 23 ; ex3 [22:0] $end
$var integer 32 < i [31:0] $end
$upscope $end
$scope module mixer_inst $end
$var wire 1 # clk $end
$var wire 23 = ex1 [22:0] $end
$var wire 23 > ex2 [22:0] $end
$var wire 23 ? ex3 [22:0] $end
$var wire 1 $ rst $end
$var reg 23 @ D1 [22:0] $end
$var reg 23 A D2 [22:0] $end
$var reg 23 B D3 [22:0] $end
$var reg 23 C v_reg [22:0] $end
$upscope $end
$scope module read_inst $end
$var wire 1 # clk $end
$var wire 1 D enable_read $end
$var wire 1 $ rst $end
$var reg 16 E index [15:0] $end
$var reg 32 F val1 [31:0] $end
$var reg 32 G val2 [31:0] $end
$var reg 32 H val3 [31:0] $end
$upscope $end
$scope module sbox_inst $end
$var wire 1 # clk $end
$var wire 8 I data_in [7:0] $end
$var wire 1 - enable_write $end
$var wire 1 $ rst $end
$var wire 1 ! done_sbox $end
$var reg 8 J data_out [7:0] $end
$var reg 9 K index [8:0] $end
$var integer 32 L i [31:0] $end
$upscope $end
$scope module seen_inst $end
$var wire 1 # clk $end
$var wire 8 M data_in [7:0] $end
$var wire 1 $ rst $end
$var reg 8 N index [7:0] $end
$var reg 8 O next_index [7:0] $end
$var reg 1 ) seen_flag $end
$var reg 1 P unvalid $end
$var integer 32 Q i [31:0] $end
$upscope $end
$upscope $end
$upscope $end
$enddefinitions $end
$comment Show the parameter values. $end
$dumpall
b1010 "
$end
#0
$dumpvars
b100000000 Q
1P
b0 O
b0 N
b0 M
b100000000 L
b0 K
bx J
b0 I
b0 H
b0 G
b0 F
b0 E
1D
b0 C
b0 B
b0 A
b0 @
b0 ?
b0 >
b0 =
b11 <
b0 ;
b0 :
b0 9
b0 8
b0 7
b0 6
15
b0 4
b0 3
b0 2
b0 1
b0 0
b0 /
b0 .
0-
b0 ,
b0 +
b0 *
0)
b0 (
b0 '
b0 &
b0 %
1$
1#
0!
$end
#5
0#
#10
b100000000 L
b100000000 Q
b11 <
1#
#15
0#
#20
b11 E
b1000101000010010001100010011111 %
b1000101000010010001100010011111 6
b1000101000010010001100010011111 H
b1000101000101100010001011000111 &
b1000101000101100010001011000111 7
b1000101000101100010001011000111 G
b1000100111001000001100111110111 '
b1000100111001000001100111110111 8
b1000100111001000001100111110111 F
1)
1-
b11 <
1#
0$
#25
0#
#30
b1 K
0-
b1 .
b1 3
b1 4
b110 E
b1000011100001100011001110110000 %
b1000011100001100011001110110000 6
b1000011100001100011001110110000 H
b1000101000011001111011010111101 &
b1000101000011001111011010111101 7
b1000101000011001111011010111101 G
b1000101000101001101110001110010 '
b1000101000101001101110001110010 8
b1000101000101001101110001110010 F
b11 <
1#
#35
0#
#40
b1001 E
b1000101011010011010111110000101 %
b1000101011010011010111110000101 6
b1000101011010011010111110000101 H
b1000100000011111100011010110011 &
b1000100000011111100011010110011 7
b1000100000011111100011010110011 G
b1000101100001111000010110100001 '
b1000101100001111000010110100001 8
b1000101100001111000010110100001 F
b11 <
1#
#45
0#
#50
b1100 E
b1000101010011110100110111010010 %
b1000101010011110100110111010010 6
b1000101010011110100110111010010 H
b1000101100011011100011001100101 &
b1000101100011011100011001100101 7
b1000101100011011100011001100101 G
b1000100111000011000001000101001 '
b1000100111000011000001000101001 8
b1000100111000011000001000101001 F
b11 <
1#
#55
0#
#60
b1111 E
b1000100101100001100111101001000 %
b1000100101100001100111101001000 6
b1000100101100001100111101001000 H
b1000101100011110010100101010110 &
b1000101100011110010100101010110 7
b1000101100011110010100101010110 G
b1000101001000111110001001011000 '
b1000101001000111110001001011000 8
b1000101001000111110001001011000 F
b11 <
1#
#65
0#
#70
b110000100 *
b110000100 ;
b110000100 ?
b1011011111 +
b1011011111 :
b1011011111 >
b110100000 ,
b110100000 9
b110100000 =
b10010 E
b1000100111010001101110000001001 %
b1000100111010001101110000001001 6
b1000100111010001101110000001001 H
b1000100101010011000110101100100 &
b1000100101010011000110101100100 7
b1000100101010011000110101100100 G
b1000100100010010100111101010010 '
b1000100100010010100111101010010 8
b1000100100010010100111101010010 F
b11 <
1#
#75
0#
#80
b10101 E
b1000101100011100110000111000100 %
b1000101100011100110000111000100 6
b1000101100011100110000111000100 H
b1000101000011111101000110101010 &
b1000101000011111101000110101010 7
b1000101000011111101000110101010 G
b1000101100101000001000011101100 '
b1000101100101000001000011101100 8
b1000101100101000001000011101100 F
b100110 *
b100110 ;
b100110 ?
b11010011 +
b11010011 :
b11010011 >
b1000100000 ,
b1000100000 9
b1000100000 =
b10000100 B
b11011111 A
b10100000 @
b11 <
1#
#85
0#
#90
b1 O
b100000000 Q
0P
b11111011 M
b11111011 0
b11111011 (
b11111011 C
b100110 B
b11010011 A
b100000 @
b1010111011 *
b1010111011 ;
b1010111011 ?
b101110 +
b101110 :
b101110 >
b1001101000 ,
b1001101000 9
b1001101000 =
b11000 E
b1000100100101101001011101000001 %
b1000100100101101001011101000001 6
b1000100100101101001011101000001 H
b1000101100010101000000011110100 &
b1000101100010101000000011110100 7
b1000101100010101000000011110100 G
b1000101000001100100111001101100 '
b1000101000001100100111001101100 8
b1000101000001100100111001101100 F
b11 <
1#
#95
0#
#100
b10 O
b11010101 M
b11010101 0
0P
b100000000 Q
b11011 E
b1000101001011000010101110001101 %
b1000101001011000010101110001101 6
b1000101001011000010101110001101 H
b1000100000011010101100101010110 &
b1000100000011010101100101010110 7
b1000100000011010101100101010110 G
b1000100100101101100111001010010 '
b1000100100101101100111001010010 8
b1000100100101101100111001010010 F
b1001111101 *
b1001111101 ;
b1001111101 ?
b1111100001 +
b1111100001 :
b1111100001 >
b1101100000 ,
b1101100000 9
b1101100000 =
b10111011 B
b101110 A
b1101000 @
b11010101 (
b11010101 C
b11111011 2
b1 N
0)
b11 <
1#
#105
0#
#110
b100000000 Q
b11 O
b11111101 M
b11111101 0
1-
b10 N
b11111011 /
b11111011 1
b11111011 I
b11010101 2
b11111101 (
b11111101 C
b1111101 B
b11100001 A
b1100000 @
b1100000111 *
b1100000111 ;
b1100000111 ?
b1010011101 +
b1010011101 :
b1010011101 >
b1110001000 ,
b1110001000 9
b1110001000 =
b11110 E
b1000101000000000100100100001000 %
b1000101000000000100100100001000 6
b1000101000000000100100100001000 H
b1000100110110011011011011101000 &
b1000100110110011011011011101000 7
b1000100110110011011011011101000 G
b1000101010011011110011010011111 '
b1000101010011011110011010011111 8
b1000101010011011110011010011111 F
b11 <
1#
#115
0#
#120
b100 O
b11111100 M
b11111100 0
0P
b100000000 Q
b100001 E
b1000100101011111100111011011011 %
b1000100101011111100111011011011 6
b1000100101011111100111011011011 H
b1000101001101011010101101101101 &
b1000101001101011010101101101101 7
b1000101001101011010101101101101 G
b1000101011111100011011110010001 '
b1000101011111100011011110010001 8
b1000101011111100011011110010001 F
b1011111000 *
b1011111000 ;
b1011111000 ?
b10111000 +
b10111000 :
b10111000 >
b101000000 ,
b101000000 9
b101000000 =
b111 B
b10011101 A
b10001000 @
b11111100 (
b11111100 C
b11010101 /
b11010101 1
b11010101 I
b11111101 2
b11 N
b10 .
b10 3
b10 4
b10 K
b11 <
1#
#125
0#
#130
b100000000 Q
b101 O
b10010 M
b10010 0
b11 K
b11 .
b11 3
b11 4
b100 N
b11111101 /
b11111101 1
b11111101 I
b11111100 2
b10010 (
b10010 C
b11111000 B
b10111000 A
b1000000 @
b11001111 *
b11001111 ;
b11001111 ?
b101000 +
b101000 :
b101000 >
b1010100000 ,
b1010100000 9
b1010100000 =
b100100 E
b1000101001001001000010000010010 %
b1000101001001001000010000010010 6
b1000101001001001000010000010010 H
b1000101010100001001001000100001 &
b1000101010100001001001000100001 7
b1000101010100001001001000100001 G
b1000100001101010100000000101100 '
b1000100001101010100000000101100 8
b1000100001101010100000000101100 F
b11 <
1#
#135
0#
#140
b0 M
b0 0
1P
b100000000 Q
b100111 E
b1000101011100100011000100111111 %
b1000101011100100011000100111111 6
b1000101011100100011000100111111 H
b1000101100110001001100110111001 &
b1000101100110001001100110111001 7
b1000101100110001001100110111001 G
b1000100100101011110111000001000 '
b1000100100101011110111000001000 8
b1000100100101011110111000001000 F
b100001010 *
b100001010 ;
b100001010 ?
b10111111 +
b10111111 :
b10111111 >
b101100000 ,
b101100000 9
b101100000 =
b11001111 B
b101000 A
b10100000 @
b0 (
b0 C
b11111100 /
b11111100 1
b11111100 I
b10010 2
b101 N
b100 .
b100 3
b100 4
b100 K
b11 <
1#
#145
0#
#150
b110 O
b100000000 Q
0P
b1000111 M
b1000111 0
b101 K
b101 .
b101 3
b101 4
1)
b10010 /
b10010 1
b10010 I
b0 2
b1000111 (
b1000111 C
b1010 B
b10111111 A
b1100000 @
b11011011 *
b11011011 ;
b11011011 ?
b1110111110 +
b1110111110 :
b1110111110 >
b1011001000 ,
b1011001000 9
b1011001000 =
b101010 E
b1000101011001110101000000010010 %
b1000101011001110101000000010010 6
b1000101011001110101000000010010 H
b1000101100001110001001010110100 &
b1000101100001110001001010110100 7
b1000101100001110001001010110100 G
b1000101011000001100110011111111 '
b1000101011000001100110011111111 8
b1000101011000001100110011111111 F
b11 <
1#
#155
0#
#160
b11010101 M
b11010101 0
1P
b100000000 Q
b101101 E
b1000101010110101100110001000000 %
b1000101010110101100110001000000 6
b1000101010110101100110001000000 H
b1000100110111100000100110111100 &
b1000100110111100000100110111100 7
b1000100110111100000100110111100 G
b1000100111101010111000011010000 '
b1000100111101010111000011010000 8
b1000100111101010111000011010000 F
b1010000100 *
b1010000100 ;
b1010000100 ?
b10011110 +
b10011110 :
b10011110 >
b1000 ,
b1000 9
b1000 =
b11011011 B
b10111110 A
b11001000 @
b11010101 (
b11010101 C
b0 /
b0 1
b0 I
b1000111 2
b110 N
0)
b110 .
b110 3
b110 4
0-
b110 K
b11 <
1#
#165
0#
#170
b111 O
b100000000 Q
0P
b10101101 M
b10101101 0
1-
1)
b1000111 /
b1000111 1
b1000111 I
b11010101 2
b10101101 (
b10101101 C
b10000100 B
b10011110 A
b1000 @
b1010000010 *
b1010000010 ;
b1010000010 ?
b10001101 +
b10001101 :
b10001101 >
b110101000 ,
b110101000 9
b110101000 =
b110000 E
b1000101001111010000110111000001 %
b1000101001111010000110111000001 6
b1000101001111010000110111000001 H
b1000101001000101001000010110001 &
b1000101001000101001000010110001 7
b1000101001000101001000010110001 G
b1000011110010101001110111100000 '
b1000011110010101001110111100000 8
b1000011110010101001110111100000 F
b11 <
1#
#175
0#
#180
b10010 M
b10010 0
1P
b100000000 Q
b110011 E
b1000101011011101000110110010011 %
b1000101011011101000110110010011 6
b1000101011011101000110110010011 H
b1000101001111111111011110111101 &
b1000101001111111111011110111101 7
b1000101001111111111011110111101 G
b1000101001100011110011110111011 '
b1000101001100011110011110111011 8
b1000101001100011110011110111011 F
b1000011111 *
b1000011111 ;
b1000011111 ?
b101001010 +
b101001010 :
b101001010 >
b1101000 ,
b1101000 9
b1101000 =
b10000010 B
b10001101 A
b10101000 @
b10010 (
b10010 C
b11010101 /
b11010101 1
b11010101 I
b10101101 2
b111 N
0)
b111 .
b111 3
b111 4
0-
b111 K
b11 <
1#
#185
0#
#190
b1000 O
b100000000 Q
0P
b10100111 M
b10100111 0
1-
1)
b10101101 /
b10101101 1
b10101101 I
b10010 2
b10100111 (
b10100111 C
b11111 B
b1001010 A
b1101000 @
b1100001010 *
b1100001010 ;
b1100001010 ?
b10011001 +
b10011001 :
b10011001 >
b100000000 ,
b100000000 9
b100000000 =
b110110 E
b1000100110001100000011111111011 %
b1000100110001100000011111111011 6
b1000100110001100000011111111011 H
b1000101011011110111010101110010 &
b1000101011011110111010101110010 7
b1000101011011110111010101110010 G
b1000101000000011011100011101111 '
b1000101000000011011100011101111 8
b1000101000000011011100011101111 F
b11 <
1#
#195
0#
#200
b1001 O
b111101 M
b111101 0
0P
b100000000 Q
b111001 E
b1000101011101010100010111001101 %
b1000101011101010100010111001101 6
b1000101011101010100010111001101 H
b1000101100010000001100011111011 &
b1000101100010000001100011111011 7
b1000101100010000001100011111011 G
b1000101100000001001101010000011 '
b1000101100000001001101010000011 8
b1000101100000001001101010000011 F
b101011 *
b101011 ;
b101011 ?
b101111010 +
b101111010 :
b101111010 >
b1101000 ,
b1101000 9
b1101000 =
b1010 B
b10011001 A
b0 @
b111101 (
b111101 C
b10010 /
b10010 1
b10010 I
b10100111 2
b1000 N
0)
b1000 .
b1000 3
b1000 4
0-
b1000 K
b11 <
1#
#205
0#
#210
b100000000 Q
b1010 O
b10010011 M
b10010011 0
1-
b1001 N
b10100111 /
b10100111 1
b10100111 I
b111101 2
b10010011 (
b10010011 C
b101011 B
b1111010 A
b1101000 @
b1010010000 *
b1010010000 ;
b1010010000 ?
b101001 +
b101001 :
b101001 >
b100000 ,
b100000 9
b100000 =
b111100 E
b1000101000100010001000000110010 %
b1000101000100010001000000110010 6
b1000101000100010001000000110010 H
b1000011111100100110011001100011 &
b1000011111100100110011001100011 7
b1000011111100100110011001100011 G
b1000101100100111001110011100101 '
b1000101100100111001110011100101 8
b1000101100100111001110011100101 F
b11 <
1#
#215
0#
#220
b1011 O
b111001 M
b111001 0
0P
b100000000 Q
b111111 E
b1000101001001001111100001000101 %
b1000101001001001111100001000101 6
b1000101001001001111100001000101 H
b1000100111111011011001001001100 &
b1000100111111011011001001001100 7
b1000100111111011011001001001100 G
b1000100111010001010110010111000 '
b1000100111010001010110010111000 8
b1000100111010001010110010111000 F
b1001010100 *
b1001010100 ;
b1001010100 ?
b110110000 +
b110110000 :
b110110000 >
b101101000 ,
b101101000 9
b101101000 =
b10010000 B
b101001 A
b100000 @
b111001 (
b111001 C
b111101 /
b111101 1
b111101 I
b10010011 2
b1010 N
b1001 .
b1001 3
b1001 4
b1001 K
b11 <
1#
#225
0#
#230
b100000000 Q
b1100 O
b10011001 M
b10011001 0
b1010 K
b1010 .
b1010 3
b1010 4
b1011 N
b10010011 /
b10010011 1
b10010011 I
b111001 2
b10011001 (
b10011001 C
b1010100 B
b10110000 A
b1101000 @
b111100011 *
b111100011 ;
b111100011 ?
b1101000100 +
b1101000100 :
b1101000100 >
b1010101000 ,
b1010101000 9
b1010101000 =
b1000010 E
b1000100100011110111000101111011 %
b1000100100011110111000101111011 6
b1000100100011110111000101111011 H
b1000101000000111000101100110001 &
b1000101000000111000101100110001 7
b1000101000000111000101100110001 G
b1000100001001111100011111100001 '
b1000100001001111100011111100001 8
b1000100001001111100011111100001 F
b11 <
1#
#235
0#
#240
b1101 O
b10001100 M
b10001100 0
0P
b100000000 Q
b1000101 E
b1000100011000001010100110110101 %
b1000100011000001010100110110101 6
b1000100011000001010100110110101 H
b1000101100011110000000101100111 &
b1000101100011110000000101100111 7
b1000101100011110000000101100111 G
b1000101011000001110111100101010 '
b1000101011000001110111100101010 8
b1000101011000001110111100101010 F
b111101101 *
b111101101 ;
b111101101 ?
b110010011 +
b110010011 :
b110010011 >
b1101000 ,
b1101000 9
b1101000 =
b11100011 B
b1000100 A
b10101000 @
b10001100 (
b10001100 C
b111001 /
b111001 1
b111001 I
b10011001 2
b1100 N
b1011 .
b1011 3
b1011 4
b1011 K
b11 <
1#
#245
0#
#250
b100000000 Q
b1110 O
b1111 M
b1111 0
b1100 K
b1100 .
b1100 3
b1100 4
b1101 N
b10011001 /
b10011001 1
b10011001 I
b10001100 2
b1111 (
b1111 C
b11101101 B
b10010011 A
b1101000 @
b1001110001 *
b1001110001 ;
b1001110001 ?
b11100001 +
b11100001 :
b11100001 >
b1001100000 ,
b1001100000 9
b1001100000 =
b1001000 E
b1000100101101110110101011111010 %
b1000100101101110110101011111010 6
b1000100101101110110101011111010 H
b1000101010110010111001111110100 &
b1000101010110010111001111110100 7
b1000101010110010111001111110100 G
b1000100100111000110000000001001 '
b1000100100111000110000000001001 8
b1000100100111000110000000001001 F
b11 <
1#
#255
0#
#260
b1111 O
b10110 M
b10110 0
0P
b100000000 Q
b1001011 E
b1000100111111101100011000001111 %
b1000100111111101100011000001111 6
b1000100111111101100011000001111 H
b1000101000100001100100110001111 &
b1000101000100001100100110001111 7
b1000101000100001100100110001111 G
b1000101001000011101111100010111 '
b1000101001000011101111100010111 8
b1000101001000011101111100010111 F
b1111010 *
b1111010 ;
b1111010 ?
b1111100110 +
b1111100110 :
b1111100110 >
b0 ,
b0 9
b0 =
b1110001 B
b11100001 A
b1100000 @
b10110 (
b10110 C
b10001100 /
b10001100 1
b10001100 I
b1111 2
b1110 N
b1101 .
b1101 3
b1101 4
b1101 K
b11 <
1#
#265
0#
#270
b100000000 Q
b10000 O
b11110000 M
b11110000 0
b1110 K
b1110 .
b1110 3
b1110 4
b1111 N
b1111 /
b1111 1
b1111 I
b10110 2
b11110000 (
b11110000 C
b1111010 B
b11100110 A
b0 @
b10101000 *
b10101000 ;
b10101000 ?
b1011001101 +
b1011001101 :
b1011001101 >
b1011000000 ,
b1011000000 9
b1011000000 =
b1001110 E
b1000011110111001110111001110100 %
b1000011110111001110111001110100 6
b1000011110111001110111001110100 H
b1000101000101001001010111100101 &
b1000101000101001001010111100101 7
b1000101000101001001010111100101 G
b1000101100000110100110000101001 '
b1000101100000110100110000101001 8
b1000101100000110100110000101001 F
b11 <
1#
#275
0#
#280
b10001 O
b10011100 M
b10011100 0
0P
b100000000 Q
b1010001 E
b1000101000101110000011001101101 %
b1000101000101110000011001101101 6
b1000101000101110000011001101101 H
b1000101100010001111010101011000 &
b1000101100010001111010101011000 7
b1000101100010001111010101011000 G
b1000101010101111011010010010111 '
b1000101010101111011010010010111 8
b1000101010101111011010010010111 F
b111001110 *
b111001110 ;
b111001110 ?
b1111100010 +
b1111100010 :
b1111100010 >
b1110101000 ,
b1110101000 9
b1110101000 =
b10101000 B
b11001101 A
b11000000 @
b10011100 (
b10011100 C
b10110 /
b10110 1
b10110 I
b11110000 2
b10000 N
b1111 .
b1111 3
b1111 4
b1111 K
b11 <
1#
#285
0#
#290
b100000000 Q
b10010 O
b10100101 M
b10100101 0
b10000 K
b10000 .
b10000 3
b10000 4
b10001 N
b11110000 /
b11110000 1
b11110000 I
b10011100 2
b10100101 (
b10100101 C
b11001110 B
b11100010 A
b10101000 @
b1000000100 *
b1000000100 ;
b1000000100 ?
b1011110000 +
b1011110000 :
b1011110000 >
b1111100000 ,
b1111100000 9
b1111100000 =
b1010100 E
b1000101000010111110010101011001 %
b1000101000010111110010101011001 6
b1000101000010111110010101011001 H
b1000011110001011111000011101111 &
b1000011110001011111000011101111 7
b1000011110001011111000011101111 G
b1000101100110010110001000011101 '
b1000101100110010110001000011101 8
b1000101100110010110001000011101 F
b11 <
1#
#295
0#
#300
b10011 O
b10000100 M
b10000100 0
0P
b100000000 Q
b1010111 E
b1000101100001100000110101000000 %
b1000101100001100000110101000000 6
b1000101100001100000110101000000 H
b1000101100110100010000100010001 &
b1000101100110100010000100010001 7
b1000101100110100010000100010001 G
b1000101000110101000001110001001 '
b1000101000110101000001110001001 8
b1000101000110101000001110001001 F
b110101110 *
b110101110 ;
b110101110 ?
b111010110 +
b111010110 :
b111010110 >
b1100101000 ,
b1100101000 9
b1100101000 =
b100 B
b11110000 A
b11100000 @
b10000100 (
b10000100 C
b10011100 /
b10011100 1
b10011100 I
b10100101 2
b10010 N
b10001 .
b10001 3
b10001 4
b10001 K
b11 <
1#
#305
0#
#310
b100000000 Q
b10100 O
b10100 M
b10100 0
b10010 K
b10010 .
b10010 3
b10010 4
b10011 N
b10100101 /
b10100101 1
b10100101 I
b10000100 2
b10100 (
b10100 C
b10101110 B
b11010110 A
b101000 @
b1101111101 *
b1101111101 ;
b1101111101 ?
b1111001110 +
b1111001110 :
b1111001110 >
b110100000 ,
b110100000 9
b110100000 =
b1011010 E
b1000100100110110111101010100000 %
b1000100100110110111101010100000 6
b1000100100110110111101010100000 H
b1000101011001010001111011100101 &
b1000101011001010001111011100101 7
b1000101011001010001111011100101 G
b1000101100100101000011010001010 '
b1000101100100101000011010001010 8
b1000101100100101000011010001010 F
b11 <
1#
#315
0#
#320
b10101 O
b1010000 M
b1010000 0
0P
b100000000 Q
b1011101 E
b1000101100101111100011110111110 %
b1000101100101111100011110111110 6
b1000101100101111100011110111110 H
b1000101100110110001111011001000 &
b1000101100110110001111011001000 7
b1000101100110110001111011001000 G
b1000101000101111110000101110001 '
b1000101000101111110000101110001 8
b1000101000101111110000101110001 F
b1001110101 *
b1001110101 ;
b1001110101 ?
b1010101100 +
b1010101100 :
b1010101100 >
b111100000 ,
b111100000 9
b111100000 =
b1111101 B
b11001110 A
b10100000 @
b1010000 (
b1010000 C
b10000100 /
b10000100 1
b10000100 I
b10100 2
b10100 N
b10011 .
b10011 3
b10011 4
b10011 K
b11 <
1#
#325
0#
#330
b100000000 Q
b10110 O
b10011 M
b10011 0
b10100 K
b10100 .
b10100 3
b10100 4
b10101 N
b10100 /
b10100 1
b10100 I
b1010000 2
b10011 (
b10011 C
b1110101 B
b10101100 A
b11100000 @
b10000 *
b10000 ;
b10000 ?
b1010100111 +
b1010100111 :
b1010100111 >
b1111100000 ,
b1111100000 9
b1111100000 =
b1100000 E
b1000101100000000000010111011111 %
b1000101100000000000010111011111 6
b1000101100000000000010111011111 H
b1000100111110100100000010000101 &
b1000100111110100100000010000101 7
b1000100111110100100000010000101 G
b1000100001100010110101010000100 '
b1000100001100010110101010000100 8
b1000100001100010110101010000100 F
b11 <
1#
#335
0#
#340
b111001 M
b111001 0
1P
b100000000 Q
b1100011 E
b1000101011100101001011011000011 %
b1000101011100101001011011000011 6
b1000101011100101001011011000011 H
b1000101100001101001111011011001 &
b1000101100001101001111011011001 7
b1000101100001101001111011011001 G
b1000100110110110110100101010001 '
b1000100110110110110100101010001 8
b1000100110110110110100101010001 F
b101010110 *
b101010110 ;
b101010110 ?
b1100110110 +
b1100110110 :
b1100110110 >
b100000000 ,
b100000000 9
b100000000 =
b10000 B
b10100111 A
b111001 (
b111001 C
b1010000 /
b1010000 1
b1010000 I
b10011 2
b10110 N
b10101 .
b10101 3
b10101 4
b10101 K
b11 <
1#
#345
0#
#350
b10111 O
b100000000 Q
0P
b1010111 M
b1010111 0
b10110 K
b10110 .
b10110 3
b10110 4
1)
b10011 /
b10011 1
b10011 I
b111001 2
b1010111 (
b1010111 C
b1010110 B
b110110 A
b0 @
b1000110010 *
b1000110010 ;
b1000110010 ?
b101001101 +
b101001101 :
b101001101 >
b1100100000 ,
b1100100000 9
b1100100000 =
b1100110 E
b1000101010111101110111100010011 %
b1000101010111101110111100010011 6
b1000101010111101110111100010011 H
b1000101100011000100010000011101 &
b1000101100011000100010000011101 7
b1000101100011000100010000011101 G
b1000101000001110101100101101111 '
b1000101000001110101100101101111 8
b1000101000001110101100101101111 F
b11 <
1#
#355
0#
#360
b11000 O
b1100000 M
b1100000 0
0P
b100000000 Q
b1101001 E
b1000100000000000100000111100111 %
b1000100000000000100000111100111 6
b1000100000000000100000111100111 H
b1000101011001100100100101010100 &
b1000101011001100100100101010100 7
b1000101011001100100100101010100 G
b1000101000110010011011000000100 '
b1000101000110010011011000000100 8
b1000101000110010011011000000100 F
b101000000 *
b101000000 ;
b101000000 ?
b100110101 +
b100110101 :
b100110101 >
b11101000 ,
b11101000 9
b11101000 =
b110010 B
b1001101 A
b100000 @
b1100000 (
b1100000 C
b111001 /
b111001 1
b111001 I
b1010111 2
b10111 N
0)
b10111 .
b10111 3
b10111 4
0-
b10111 K
b11 <
1#
#365
0#
#370
b100000000 Q
b11001 O
b1011111 M
b1011111 0
1-
b11000 N
b1010111 /
b1010111 1
b1010111 I
b1100000 2
b1011111 (
b1011111 C
b1000000 B
b110101 A
b11101000 @
b1010100101 *
b1010100101 ;
b1010100101 ?
b111011100 +
b111011100 :
b111011100 >
b101100000 ,
b101100000 9
b101100000 =
b1101100 E
b1000101001111010110000111001010 %
b1000101001111010110000111001010 6
b1000101001111010110000111001010 H
b1000101011000010000111101010011 &
b1000101011000010000111101010011 7
b1000101011000010000111101010011 G
b1000011100000101110011010110010 '
b1000011100000101110011010110010 8
b1000011100000101110011010110010 F
b11 <
1#
#375
0#
#380
b11010 O
b10011101 M
b10011101 0
0P
b100000000 Q
b1101111 E
b1000011101100101101110001001010 %
b1000011101100101101110001001010 6
b1000011101100101101110001001010 H
b1000100111001110101101010001011 &
b1000100111001110101101010001011 7
b1000100111001110101101010001011 G
b1000101010011110000000000110110 '
b1000101010011110000000000110110 8
b1000101010011110000000000110110 F
b101010010 *
b101010010 ;
b101010010 ?
b10100010 +
b10100010 :
b10100010 >
b101000000 ,
b101000000 9
b101000000 =
b10100101 B
b11011100 A
b1100000 @
b10011101 (
b10011101 C
b1100000 /
b1100000 1
b1100000 I
b1011111 2
b11001 N
b11000 .
b11000 3
b11000 4
b11000 K
b11 <
1#
#385
0#
#390
b100000000 Q
b11011 O
b11001 M
b11001 0
b11001 K
b11001 .
b11001 3
b11001 4
b11010 N
b1011111 /
b1011111 1
b1011111 I
b10011101 2
b11001 (
b11001 C
b1010010 B
b10100010 A
b1000000 @
b11100010 *
b11100010 ;
b11100010 ?
b1000101111 +
b1000101111 :
b1000101111 >
b1000001000 ,
b1000001000 9
b1000001000 =
b1110010 E
b1000100100100111101001011100111 %
b1000100100100111101001011100111 6
b1000100100100111101001011100111 H
b1000100111010010001111110110110 &
b1000100111010010001111110110110 7
b1000100111010010001111110110110 G
b1000101100000010101001110110111 '
b1000101100000010101001110110111 8
b1000101100000010101001110110111 F
b11 <
1#
#395
0#
#400
b11100 O
b10110000 M
b10110000 0
0P
b100000000 Q
b1110101 E
b1000101001011010011001010110001 %
b1000101001011010011001010110001 6
b1000101001011010011001010110001 H
b1000101011101101010110000110111 &
b1000101011101101010110000110111 7
b1000101011101101010110000110111 G
b1000100000011010011101101101110 '
b1000100000011010011101101101110 8
b1000100000011010011101101101110 F
b110100101 *
b110100101 ;
b110100101 ?
b10001101 +
b10001101 :
b10001101 >
b101000000 ,
b101000000 9
b101000000 =
b11100010 B
b101111 A
b1000 @
b10110000 (
b10110000 C
b10011101 /
b10011101 1
b10011101 I
b11001 2
b11011 N
b11010 .
b11010 3
b11010 4
b11010 K
b11 <
1#
#405
0#
#410
b100000000 Q
b11101 O
b11000101 M
b11000101 0
b11011 K
b11011 .
b11011 3
b11011 4
b11100 N
b11001 /
b11001 1
b11001 I
b10110000 2
b11000101 (
b11000101 C
b10100101 B
b10001101 A
b1000000 @
b100101001 *
b100101001 ;
b100101001 ?
b1100111110 +
b1100111110 :
b1100111110 >
b11001000 ,
b11001000 9
b11001000 =
b1111000 E
b1000100111000000011101001001011 %
b1000100111000000011101001001011 6
b1000100111000000011101001001011 H
b1000101011010001100000000100001 &
b1000101011010001100000000100001 7
b1000101011010001100000000100001 G
b1000101011111110110100010111001 '
b1000101011111110110100010111001 8
b1000101011111110110100010111001 F
b11 <
1#
#415
0#
#420
b11110 O
b1101000 M
b1101000 0
0P
b100000000 Q
b1111011 E
b1000100110110011111110110010000 %
b1000100110110011111110110010000 6
b1000100110110011111110110010000 H
b1000101100010011011111111101001 &
b1000101100010011011111111101001 7
b1000101100010011011111111101001 G
b1000101011001011011111101000110 '
b1000101011001011011111101000110 8
b1000101011001011011111101000110 F
b1110110 *
b1110110 ;
b1110110 ?
b1001000001 +
b1001000001 :
b1001000001 >
b1010100000 ,
b1010100000 9
b1010100000 =
b101001 B
b111110 A
b11001000 @
b1101000 (
b1101000 C
b10110000 /
b10110000 1
b10110000 I
b11000101 2
b11101 N
b11100 .
b11100 3
b11100 4
b11100 K
b11 <
1#
#425
0#
