vivado/Chaos_Based_Symmetric_Image_Encryption/Chaos_Based_Symmetric_Image_Encryption.sim/sim_1/behav/xsim/key_schedule_5r.vcd
$date
   Mon Dec  1 11:09:42 2025
$end

$version
  2023.2
  $dumpfile ("key_schedule_5r.vcd") 
$end

$timescale
  1ps
$end

$scope module key_schedule_5r_tb $end
$var reg 1 ! clk $end
$var reg 1 " reset_n $end
$var reg 1 # key_tvalid $end
$var reg 128 $ key [127:0] $end
$var wire 1 % valid $end
$var wire 128 & K0 [127:0] $end
$var wire 128 ' K1 [127:0] $end
$var wire 128 ( K2 [127:0] $end
$var wire 128 ) K3 [127:0] $end
$var wire 128 * K4 [127:0] $end
$scope module dut $end
$var wire 1 + clk $end
$var wire 1 , reset_n $end
$var wire 1 - tvalid $end
$var wire 128 . key [127:0] $end
$var reg 1 / valid $end
$var reg 128 0 K0 [127:0] $end
$var reg 128 1 K1 [127:0] $end
$var reg 128 2 K2 [127:0] $end
$var reg 128 3 K3 [127:0] $end
$var reg 128 4 K4 [127:0] $end
$var reg 3 5 index [2:0] $end
$var integer 32 6 i [31:0] $end
$upscope $end
$scope task send_key $end
$var reg 128 7 key_value [127:0] $end
$upscope $end
$upscope $end
$enddefinitions $end

#0
$dumpvars
0!
0"
0#
b0 $
0%
b0 &
b0 '
b0 (
b0 )
b0 *
0+
0,
0-
b0 .
0/
b0 0
b0 1
b0 2
b0 3
b0 4
b0 5
b101 6
bx 7
$end

#5000
1!
1+
b101 6

#10000
0!
0+

#15000
1!
1+
b101 6

#20000
0!
1"
0+
1,
b10101010101010101011101110111011110011001100110000010001000100011101110111011101001000100010001011101110111011100011001100110011 7

#25000
1!
1+

#30000
0!
0+

#35000
1!
1+

#40000
0!
1#
b10101010101010101011101110111011110011001100110000010001000100011101110111011101001000100010001011101110111011100011001100110011 $
0+
1-
b10101010101010101011101110111011110011001100110000010001000100011101110111011101001000100010001011101110111011100011001100110011 .

#45000
1!
1+
b1 5

#50000
0!
0#
0+
0-
b10001000100010010001000100010001100110011001101000100010001000101010101010101011001100110011001110111011101111000100010001000 7

#55000
1!
1+

#60000
0!
0+

#65000
1!
1+

#70000
0!
1#
b10001000100010010001000100010001100110011001101000100010001000101010101010101011001100110011001110111011101111000100010001000 $
0+
1-
b10001000100010010001000100010001100110011001101000100010001000101010101010101011001100110011001110111011101111000100010001000 .

#75000
1!
1+
b10 5

#80000
0!
0#
0+
0-
b1001000110100010101100111100010011010101111001101111011111111111011011100101110101001100001110110010101000011001000010000 7

#85000
1!
1+

#90000
0!
0+

#95000
1!
1+

#100000
0!
1#
b1001000110100010101100111100010011010101111001101111011111111111011011100101110101001100001110110010101000011001000010000 $
0+
1-
b1001000110100010101100111100010011010101111001101111011111111111011011100101110101001100001110110010101000011001000010000 .

#105000
1!
1+
b11 5

#110000
0!
0#
0+
0-
b11001010111111101011101010111110110111101010110110111110111011110001001000110100010101100111100010010000101010111100110111101111 7

#115000
1!
1+

#120000
0!
0+

#125000
1!
1+

#130000
0!
1#
b11001010111111101011101010111110110111101010110110111110111011110001001000110100010101100111100010010000101010111100110111101111 $
0+
1-
b11001010111111101011101010111110110111101010110110111110111011110001001000110100010101100111100010010000101010111100110111101111 .

#135000
1!
1+
b100 5

#140000
0!
0#
0+
0-
b11111010110011101111101011001110000100100011010001010110011110001010000110110010110000111101010011100101111101100000011100011000 7

#145000
1!
1+

#150000
0!
0+

#155000
1!
1+

#160000
0!
1#
b11111010110011101111101011001110000100100011010001010110011110001010000110110010110000111101010011100101111101100000011100011000 $
0+
1-
b11111010110011101111101011001110000100100011010001010110011110001010000110110010110000111101010011100101111101100000011100011000 .

#165000
1!
1+
b101 5

#170000
0!
0#
0+
0-

#175000
1!
1%
b10101010101010101011101110111011110011001100110000010001000100011101110111011101001000100010001011101110111011100011001100110011 &
b10001000100010010001000100010001100110011001101000100010001000101010101010101011001100110011001110111011101111000100010001000 '
b1001000110100010101100111100010011010101111001101111011111111111011011100101110101001100001110110010101000011001000010000 (
b11001010111111101011101010111110110111101010110110111110111011110001001000110100010101100111100010010000101010111100110111101111 )
b11111010110011101111101011001110000100100011010001010110011110001010000110110010110000111101010011100101111101100000011100011000 *
1+
1/
b10101010101010101011101110111011110011001100110000010001000100011101110111011101001000100010001011101110111011100011001100110011 0
b10001000100010010001000100010001100110011001101000100010001000101010101010101011001100110011001110111011101111000100010001000 1
b1001000110100010101100111100010011010101111001101111011111111111011011100101110101001100001110110010101000011001000010000 2
b11001010111111101011101010111110110111101010110110111110111011110001001000110100010101100111100010010000101010111100110111101111 3
b11111010110011101111101011001110000100100011010001010110011110001010000110110010110000111101010011100101111101100000011100011000 4

