vivado/Chaos_Based_Symmetric_Image_Encryption/Chaos_Based_Symmetric_Image_Encryption.sim/sim_1/behav/xsim/sawtooth.vcd
$date
   Thu Nov  6 05:24:05 2025
$end

$version
  2023.2
  $dumpfile ("sawtooth.vcd") 
$end

$timescale
  1ps
$end

$scope module FP_sawtooth_tb $end
$var reg 1 ! clk $end
$var reg 1 " reset_n $end
$var reg 32 # a_operand [31:0] $end
$var reg 32 $ b_operand [31:0] $end
$var wire 32 % result [31:0] $end
$scope module uut $end
$var wire 1 & clk $end
$var wire 1 ' reset_n $end
$var wire 32 ( x [31:0] $end
$var wire 32 ) epsilon [31:0] $end
$var reg 32 * result [31:0] $end
$var reg 32 + div_a_op [31:0] $end
$var reg 32 , div_b_op [31:0] $end
$var reg 32 - mul_a_op_1 [31:0] $end
$var reg 32 . mul_b_op_1 [31:0] $end
$var reg 32 / mul_a_op_2 [31:0] $end
$var reg 32 0 mul_b_op_2 [31:0] $end
$var reg 32 1 add_a_op_1 [31:0] $end
$var reg 32 2 add_b_op_1 [31:0] $end
$var reg 32 3 add_a_op_2 [31:0] $end
$var reg 32 4 add_b_op_2 [31:0] $end
$var wire 32 5 div_out [31:0] $end
$var wire 32 6 mul_out_1 [31:0] $end
$var wire 32 7 add_out_1 [31:0] $end
$var wire 32 8 mul_out_2 [31:0] $end
$var wire 32 9 add_out_2 [31:0] $end
$var wire 1 : div_out_valid $end
$var wire 1 ; add_out_valid_1 $end
$var wire 1 < add_out_valid_2 $end
$var wire 1 = mul_out_valid_1 $end
$var wire 1 > mul_out_valid_2 $end
$var integer 32 ? i [31:0] $end
$scope module div $end
$var wire 1 & aclk $end
$var wire 1 @ s_axis_a_tvalid $end
$var wire 32 A s_axis_a_tdata [31:0] $end
$var wire 1 @ s_axis_b_tvalid $end
$var wire 32 B s_axis_b_tdata [31:0] $end
$var wire 1 : m_axis_result_tvalid $end
$var wire 32 5 m_axis_result_tdata [31:0] $end
$upscope $end
$scope module add_1 $end
$var wire 1 & aclk $end
$var wire 1 @ s_axis_a_tvalid $end
$var wire 32 C s_axis_a_tdata [31:0] $end
$var wire 1 @ s_axis_b_tvalid $end
$var wire 32 D s_axis_b_tdata [31:0] $end
$var wire 1 ; m_axis_result_tvalid $end
$var wire 32 7 m_axis_result_tdata [31:0] $end
$upscope $end
$scope module mul_1 $end
$var wire 1 & aclk $end
$var wire 1 @ s_axis_a_tvalid $end
$var wire 32 E s_axis_a_tdata [31:0] $end
$var wire 1 @ s_axis_b_tvalid $end
$var wire 32 F s_axis_b_tdata [31:0] $end
$var wire 1 = m_axis_result_tvalid $end
$var wire 32 6 m_axis_result_tdata [31:0] $end
$upscope $end
$scope module add_2 $end
$var wire 1 & aclk $end
$var wire 1 @ s_axis_a_tvalid $end
$var wire 32 G s_axis_a_tdata [31:0] $end
$var wire 1 @ s_axis_b_tvalid $end
$var wire 32 H s_axis_b_tdata [31:0] $end
$var wire 1 < m_axis_result_tvalid $end
$var wire 32 9 m_axis_result_tdata [31:0] $end
$upscope $end
$scope module mul_2 $end
$var wire 1 & aclk $end
$var wire 1 @ s_axis_a_tvalid $end
$var wire 32 I s_axis_a_tdata [31:0] $end
$var wire 1 @ s_axis_b_tvalid $end
$var wire 32 J s_axis_b_tdata [31:0] $end
$var wire 1 > m_axis_result_tvalid $end
$var wire 32 8 m_axis_result_tdata [31:0] $end
$upscope $end
$scope function floor $end
$var reg 32 K floor [31:0] $end
$var reg 32 L x [31:0] $end
$var reg 1 M sign $end
$var reg 8 N exponent [7:0] $end
$var reg 23 O fraction [22:0] $end
$var reg 32 P result [31:0] $end
$var integer 32 Q E [31:0] $end
$var integer 32 R frac_bits [31:0] $end
$var reg 24 S mantissa [23:0] $end
$var reg 24 T mask [23:0] $end
$upscope $end
$scope function is_ood $end
$var reg 1 U is_ood $end
$var reg 32 V x [31:0] $end
$var reg 8 W exponent [7:0] $end
$var reg 23 X fraction [22:0] $end
$var reg 24 Y mantissa [23:0] $end
$var integer 32 Z int_bits [31:0] $end
$var reg 24 [ shifted [23:0] $end
$upscope $end
$scope function mul_half $end
$var reg 32 \ mul_half [31:0] $end
$var reg 32 ] x [31:0] $end
$var reg 1 ^ sign $end
$var reg 8 _ exponent [7:0] $end
$var reg 23 ` fraction [22:0] $end
$upscope $end
$scope function mul_neg2 $end
$var reg 32 a mul_neg2 [31:0] $end
$var reg 32 b x [31:0] $end
$var reg 1 c sign $end
$var reg 8 d exponent [7:0] $end
$var reg 23 e fraction [22:0] $end
$upscope $end
$upscope $end
$upscope $end
$enddefinitions $end

#0
$dumpvars
0!
0"
b0 #
b0 $
b0 %
0&
0'
b0 (
b0 )
b0 *
b0 +
b0 ,
b0 -
b0 .
b0 /
b0 0
b0 1
b0 2
b0 3
b0 4
b0 5
b0 6
bx 7
b0 8
bx 9
0:
0;
0<
0=
0>
b1010 ?
1@
b0 A
b0 B
b0 C
b0 D
b0 E
b0 F
b0 G
b0 H
b0 I
b0 J
bx K
bx L
xM
bx N
bx O
bx P
bx Q
bx R
bx S
bx T
xU
bx V
bx W
bx X
bx Y
bx Z
bx [
bx \
bx ]
x^
bx _
bx `
bx a
bx b
xc
bx d
bx e
$end

#5000
1!
1&
b1000000000000000000000000000000 6
b0 7
b1000000000000000000000000000000 8
b0 9
b1010 ?

#10000
0!
0&

#15000
1!
1&
b111111000000000000000000000000 5
b1010 ?

#20000
0!
0&

#25000
1!
1"
b111111111000000000000000000000 #
b111101010011001100110011001101 $
1&
1'
b111111111000000000000000000000 (
b111101010011001100110011001101 )
bx .
b111111100000000000000000000000 /
b111111100000000000000000000000 1
bx 3
b111111000000000000000000000001 5
b10010 ?
b111111100000000000000000000000 C
bx F
bx G
b111111100000000000000000000000 I
b0 K
b0 L
0M
b0 N
b0 O
b0 P
0U
b0 V
b0 W
b0 X
b100000000000000000000000 Y
b11111111111111111111111110000001 Z

#30000
0!
0&

#35000
1!
b1000010111101100011110101110001 #
1&
b1000010111101100011110101110001 (
b111111111000000000000000000000 +
b111101010011001100110011001101 ,
b111111000000000000000000000010 5
b10010 ?
b111111111000000000000000000000 A
b111101010011001100110011001101 B

#40000
0!
0&

#45000
1!
1&
b1000010111101100011110101110001 +
b111111000000000000000000000100 5
b0 6
b0 8
b10010 ?
b1000010111101100011110101110001 A

#50000
0!
0&

#55000
1!
b111111111000000000000000000000 #
1&
b111111111000000000000000000000 (
b111111000000000000000000001000 5
1=
1>
b10010 ?

#60000
0!
0&

#65000
1!
1&
b111111111000000000000000000000 +
b111111000000000000000000010000 5
b10010 ?
b111111111000000000000000000000 A

#70000
0!
0&

#75000
1!
1&
b111111000000000000000000100000 5
b10010 ?

#80000
0!
0&

#85000
1!
1&
b111111000000000000000001000000 5
bx0000000000000000000000000000000 6
b10010 ?

#90000
0!
0&

#95000
1!
1&
bx0000000000000000000000000000000 4
b111111000000000000000010000000 5
b100000000000000000000000 7
b100000000000000000000000 9
b10010 ?
bx0000000000000000000000000000000 H

#100000
0!
0&

#105000
1!
1&
b111111000000000000000100000000 5
b0 7
b0 9
1;
1<
b10010 ?
b10000000000000000000000 \
b100000000000000000000000 ]
0^
b0 _
b10000000000000000000000 `

#110000
0!
0&

#115000
1!
1&
b111111000000000000001000000000 5
b10010 ?
b10000000000000000000000 L
b10000000000000000000000 O

#120000
0!
0&

#125000
1!
1&
b111111000000000000010000000000 5
b10010 ?
b0 L
b0 O

#130000
0!
0&

#135000
1!
1&
b111111000000000000100000000000 5
b111111100000000000000000000000 7
b10010 ?

#140000
0!
0&

#145000
1!
1&
b111111000000000001000000000000 5
b10010 ?
b111111000000000000000000000000 \
b111111100000000000000000000000 ]
b1111110 _
b0 `

#150000
0!
0&

#155000
1!
1&
b111111000000000010000000000000 5
b10010 ?
b111111000000000000000000000000 L
b1111110 N
b1111110 _

#160000
0!
0&

#165000
1!
1&
b111111000000000100000000000000 5
b10010 ?
b1111110 _

#170000
0!
0&

#175000
1!
1&
b111111000000001000000000000000 5
b10010 ?
b1111110 _

#180000
0!
0&

#185000
1!
1&
b111111000000010000000000000000 5
b10010 ?
b1111110 _

#190000
0!
0&

#195000
1!
1&
b111111000000100000000000000000 5
b10010 ?
b1111110 _

#200000
0!
0&

#205000
1!
1&
b111111000001000000000000000000 5
bx0000000000000000000000000000000 9
b10010 ?
b1111110 _

#210000
0!
0&

#215000
1!
1&
bx0000000000000000000000000000000 0
b111111000010000000000000000000 5
b10010 ?
bx0000000000000000000000000000000 J
b1111110 _

#220000
0!
0&

#225000
1!
1&
b111111000100000000000000000000 5
b10010 ?
b1111110 _

#230000
0!
0&

#235000
1!
1&
b111111001000000000000000000000 5
b10010 ?
b1111110 _

#240000
0!
0&

#245000
1!
1&
b111111010000000000000000000000 5
b10010 ?
b1111110 _

#250000
0!
0&

#255000
1!
1&
b111111100000000000000000000000 5
b10010 ?
b1111110 _

#260000
0!
0&

#265000
1!
1&
b10010 ?
b1111110 _

#270000
0!
0&

#275000
1!
1&
b1111111110000000000000000000000 5
bx0000000000000000000000000000000 8
1:
b10010 ?
b1111110 _

#280000
0!
0&

#285000
1!
bx0000000000000000000000000000000 %
1&
bx0000000000000000000000000000000 *
b1111111110000000000000000000000 2
b10010 ?
b1111111110000000000000000000000 D
b1111110 _

#290000
0!
0&

#295000
1!
1&
b10010 ?
b1111110 _

#300000
0!
0&

#305000
1!
1&
b10000000100000000000000000000000 .
b0 3
b10010 ?
b10000000100000000000000000000000 F
b0 G
b1111110 _
b10000000100000000000000000000000 a
b0 b
1c
b1 d
b0 e

#310000
0!
0&

#315000
1!
1&
b1000010000011000000000000000000 5
b10010 ?
b1111110 _
b1 d

#320000
0!
0&

#325000
1!
1&
b1000010000011000000000000000000 2
b1000101000110011110011001100110 5
b10010 ?
b1000010000011000000000000000000 D
b1111110 _
b1 d

#330000
0!
0&

#335000
1!
1&
b1000101000110011110011001100110 2
b10010 ?
b1000101000110011110011001100110 D
b1111110 _
b1 d

#340000
0!
0&

#345000
1!
1&
b1000010000011000000000000000000 5
b10010 ?
b1111110 _
b1 d

#350000
0!
0&

#355000
1!
1&
b1000010000011000000000000000000 2
b10010 ?
b1000010000011000000000000000000 D
b1111110 _
b1 d

#360000
0!
0&

#365000
1!
1&
b10000000000000000000000000000000 6
b10010 ?
b1111110 _
b1 d

#370000
0!
0&

#375000
1!
1&
b10000000000000000000000000000000 4
b10010 ?
b10000000000000000000000000000000 H
b1111110 _
b1 d

#380000
0!
0&

#385000
1!
1&
b10010 ?
b1111110 _
b1 d

#390000
0!
0&

#395000
1!
1&
b1111111110000000000000000000000 7
b10010 ?
b1111110 _
b1 d

#400000
0!
0&

#405000
1!
1&
b10010 ?
b1111111010000000000000000000000 \
b1111111110000000000000000000000 ]
b11111110 _
b10000000000000000000000 `
b1 d

#410000
0!
0&

#415000
1!
1&
b0 9
b10010 ?
b1111111010000000000000000000000 K
b1111111010000000000000000000000 L
b11111110 N
b10000000000000000000000 O
b1111111010000000000000000000000 P
b11111110 _
b1 d

#420000
0!
0&

#425000
1!
1&
b1111111010000000000000000000000 -
b0 0
b10010 ?
b1111111010000000000000000000000 E
b0 J
b11111110 _
b1 d

#430000
0!
0&

#435000
1!
1&
b1000010000100000000000000000000 7
b10010 ?
b11111110 _
b1 d

#440000
0!
0&

#445000
1!
1&
b10111101110011001100110011001101 .
b1000101000110011111011001100110 7
b10010 ?
b10111101110011001100110011001101 F
b1000001100100000000000000000000 \
b1000010000100000000000000000000 ]
b10000011 _
b100000000000000000000 `
b10111101110011001100110011001101 a
b111101010011001100110011001101 b
b1111011 d
b10011001100110011001101 e

#450000
0!
0&

#455000
1!
1&
b10010 ?
b1000001100100000000000000000000 K
b1000001100100000000000000000000 L
b10000011 N
b100000000000000000000 O
b1000001100100000000000000000000 P
b100 Q
b10011 R
b100100000000000000000000 S
b111110000000000000000000 T
b1000100100110011111011001100110 \
b1000101000110011111011001100110 ]
b10001001 _
b110011111011001100110 `
b1111011 d

#460000
0!
0&

#465000
1!
1&
b1000001100100000000000000000000 -
b1000010000100000000000000000000 7
b10010 ?
b1000001100100000000000000000000 E
b1000100100110011110000000000000 K
b1000100100110011111011001100110 L
b10001001 N
b110011111011001100110 O
b1000100100110011110000000000000 P
b1010 Q
b1101 R
b100110011110000000000000 S
b111111111110000000000000 T
b10001001 _
b1111011 d

#470000
0!
0&

#475000
1!
1&
b1000100100110011110000000000000 -
b10010 ?
b1000100100110011110000000000000 E
b100110011110000000000000 S
b1000001100100000000000000000000 \
b1000010000100000000000000000000 ]
b10000011 _
b100000000000000000000 `
b1111011 d

#480000
0!
0&

#485000
1!
1&
b11000000010000000000000000000000 6
b0 8
b10010 ?
b1000001100100000000000000000000 K
b1000001100100000000000000000000 L
b10000011 N
b100000000000000000000 O
b1000001100100000000000000000000 P
b100 Q
b10011 R
b100100000000000000000000 S
b111110000000000000000000 T
b1111111010000000000000000000000 V
b11111110 W
b10000000000000000000000 X
b110000000000000000000000 Y
b1111111 Z
b10000011 _
b1111011 d

#490000
0!
0&

#495000
1!
b0 %
1&
b0 *
b1000001100100000000000000000000 -
b11000000010000000000000000000000 4
b10010 ?
b1000001100100000000000000000000 E
b11000000010000000000000000000000 H
b10000011 _
b1111011 d

#500000
0!
0&

#505000
1!
1&
b111111111000000000000000000000 3
b11111101100110011001100110011010 6
b10010 ?
b111111111000000000000000000000 G
b10000011 _
b1111011 d

#510000
0!
0&

#515000
1!
1&
b1000010111101100011110101110001 3
b11111101100110011001100110011010 4
b10010 ?
b1000010111101100011110101110001 G
b11111101100110011001100110011010 H
b10000011 _
b1111011 d

#520000
0!
0&

#525000
1!
1&
b10111111111001100110011001100111 6
b10010 ?
b1000001100100000000000000000000 V
b10000011 W
b100000000000000000000 X
b100100000000000000000000 Y
b100 Z
b10010 [
b10000011 _
b1111011 d

#530000
0!
0&

#535000
1!
1&
b10111111100000000000000000000000 /
b111111111000000000000000000000 3
b10111111111001100110011001100111 4
b11000010111101100011001100110011 6
b10010 ?
b111111111000000000000000000000 G
b10111111111001100110011001100111 H
b10111111100000000000000000000000 I
1U
b1000100100110011110000000000000 V
b10001001 W
b110011110000000000000 X
b100110011110000000000000 Y
b1010 Z
b10011001111 [
b10000011 _
b1111011 d

#540000
0!
0&

#545000
1!
1&
b11000010111101100011001100110011 4
b10010 ?
b11000010111101100011001100110011 H
b10000011 _
b1111011 d

#550000
0!
0&

#555000
1!
1&
b111111100000000000000000000000 /
b10111111111001100110011001100111 6
b10010 ?
b111111100000000000000000000000 I
0U
b1000001100100000000000000000000 V
b10000011 W
b100000000000000000000 X
b100100000000000000000000 Y
b100 Z
b10010 [
b10000011 _
b1111011 d

#560000
0!
0&

#565000
1!
1&
b10111111111001100110011001100111 4
b10010 ?
b10111111111001100110011001100111 H
b10000011 _
b1111011 d

#570000
0!
0&

#575000
1!
1&
b10010 ?
b10000011 _
b1111011 d

#580000
0!
0&

#585000
1!
1&
b10010 ?
b10000011 _
b1111011 d

#590000
0!
0&

#595000
1!
1&
b10000000000000000000000000000000 8
b10010 ?
b10000011 _
b1111011 d

#600000
0!
0&

#605000
1!
b10000000000000000000000000000000 %
1&
b10000000000000000000000000000000 *
b11000000010000000000000000000000 9
b10010 ?
b10000011 _
b1111011 d

#610000
0!
0&

#615000
1!
1&
b11000000010000000000000000000000 0
b0 8
b10111111101000000000000000000000 9
b10010 ?
b11000000010000000000000000000000 J
b10000011 _
b1111011 d

#620000
0!
0&

#625000
1!
b0 %
1&
b0 *
b10111111101000000000000000000000 0
b11111101100110011001100110011010 9
b10010 ?
b10111111101000000000000000000000 J
b10000011 _
b1111011 d

#630000
0!
0&

#635000
1!
1&
b11111101100110011001100110011010 0
b10010 ?
b11111101100110011001100110011010 J
b10000011 _
b1111011 d

#640000
0!
0&

#645000
1!
1&
b10111101010011001100110011100000 9
b10010 ?
b10000011 _
b1111011 d

#650000
0!
0&

#655000
1!
1&
b10111101010011001100110011100000 0
b11000010111100101011001100110011 9
b10010 ?
b10111101010011001100110011100000 J
b10000011 _
b1111011 d

#660000
0!
0&

#665000
1!
1&
b11000010111100101011001100110011 0
b10010 ?
b11000010111100101011001100110011 J
b10000011 _
b1111011 d

#670000
0!
0&

#675000
1!
1&
b11000000010000000000000000000000 8
b10111101010011001100110011100000 9
b10010 ?
b10000011 _
b1111011 d

#680000
0!
0&

#685000
1!
b11000000010000000000000000000000 %
1&
b11000000010000000000000000000000 *
b10111101010011001100110011100000 0
b10111111101000000000000000000000 8
b10010 ?
b10111101010011001100110011100000 J
b10000011 _
b1111011 d

#690000
0!
0&

#695000
1!
b10111111101000000000000000000000 %
1&
b10111111101000000000000000000000 *
b11111101100110011001100110011010 8
b10010 ?
b10000011 _
b1111011 d

#700000
0!
0&

#705000
1!
b11111101100110011001100110011010 %
1&
b11111101100110011001100110011010 *
b10010 ?
b10000011 _
b1111011 d

#710000
0!
0&

#715000
1!
1&
b10111101010011001100110011100000 8
b10010 ?
b10000011 _
b1111011 d

#720000
0!
0&

#725000
1!
b10111101010011001100110011100000 %
1&
b10111101010011001100110011100000 *
b11000010111100101011001100110011 8
b10010 ?
b10000011 _
b1111011 d

#730000
0!
0&

#735000
1!
b11000010111100101011001100110011 %
1&
b11000010111100101011001100110011 *
b10010 ?
b10000011 _
b1111011 d

#740000
0!
0&

#745000
1!
1&
b10111101010011001100110011100000 8
b10010 ?
b10000011 _
b1111011 d

#750000
0!
0&

#755000
1!
b10111101010011001100110011100000 %
1&
b10111101010011001100110011100000 *
b10010 ?
b10000011 _
b1111011 d

#760000
0!
0&

#765000
1!
1&
b10010 ?
b10000011 _
b1111011 d

#770000
0!
0&

#775000
1!
1&
b10010 ?
b10000011 _
b1111011 d

#780000
0!
0&

#785000
1!
1&
b10010 ?
b10000011 _
b1111011 d

#790000
0!
0&

#795000
1!
1&
b10010 ?
b10000011 _
b1111011 d

#800000
0!
0&

#805000
1!
1&
b10010 ?
b10000011 _
b1111011 d

#810000
0!
0&

#815000
1!
1&
b10010 ?
b10000011 _
b1111011 d

#820000
0!
0&

#825000
1!
1&
b10010 ?
b10000011 _
b1111011 d

#830000
0!
0&

#835000
1!
1&
b10010 ?
b10000011 _
b1111011 d

#840000
0!
0&

#845000
1!
1&
b10010 ?
b10000011 _
b1111011 d

#850000
0!
0&

#855000
1!
1&
b10010 ?
b10000011 _
b1111011 d

#860000
0!
0&

#865000
1!
1&
b10010 ?
b10000011 _
b1111011 d

#870000
0!
0&

#875000
1!
1&
b10010 ?
b10000011 _
b1111011 d

#880000
0!
0&

#885000
1!
1&
b10010 ?
b10000011 _
b1111011 d

#890000
0!
0&

#895000
1!
1&
b10010 ?
b10000011 _
b1111011 d

#900000
0!
0&

#905000
1!
1&
b10010 ?
b10000011 _
b1111011 d

#910000
0!
0&

#915000
1!
1&
b10010 ?
b10000011 _
b1111011 d

#920000
0!
0&

#925000
1!
1&
b10010 ?
b10000011 _
b1111011 d

#930000
0!
0&

#935000
1!
1&
b10010 ?
b10000011 _
b1111011 d

#940000
0!
0&

#945000
1!
1&
b10010 ?
b10000011 _
b1111011 d

#950000
0!
0&

#955000
1!
1&
b10010 ?
b10000011 _
b1111011 d

#960000
0!
0&

#965000
1!
1&
b10010 ?
b10000011 _
b1111011 d

#970000
0!
0&

#975000
1!
1&
b10010 ?
b10000011 _
b1111011 d

#980000
0!
0&

#985000
1!
1&
b10010 ?
b10000011 _
b1111011 d

#990000
0!
0&

#995000
1!
1&
b10010 ?
b10000011 _
b1111011 d

