vivado/Chaos_Based_Symmetric_Image_Encryption/Chaos_Based_Symmetric_Image_Encryption.sim/sim_1/behav/xsim/subbytes.vcd
$date
   Tue Dec  2 19:39:27 2025
$end

$version
  2023.2
  $dumpfile ("subbytes.vcd") 
$end

$timescale
  1ps
$end

$scope module subbytes_tb $end
$var reg 1 ! clk $end
$var reg 1 " reset_n $end
$var reg 1 # sbox_valid $end
$var reg 8 $ sbox_out [7:0] $end
$var reg 1 % tvalid $end
$var reg 128 & in [127:0] $end
$var wire 1 ' valid $end
$var wire 128 ( out [127:0] $end
$var integer 32 ) i [31:0] $end
$scope module dut $end
$var wire 1 * clk $end
$var wire 1 + reset_n $end
$var wire 1 , sbox_valid $end
$var wire 8 - sbox_out [7:0] $end
$var wire 1 . tvalid $end
$var wire 128 / in [127:0] $end
$var reg 1 0 valid $end
$var reg 128 1 out [127:0] $end
$var reg 8 2 index [7:0] $end
$var reg 1 3 sbox_ready $end
$var integer 32 4 i [31:0] $end
$upscope $end
$upscope $end
$enddefinitions $end

#0
$dumpvars
0!
0"
0#
bx $
0%
b0 &
0'
b0 (
bx )
0*
0+
0,
bx -
0.
b0 /
00
b0 1
b0 2
03
bx 4
$end

#1000
1!
1*

#2000
0!
0*

#3000
1!
1*

#4000
0!
0*

#5000
1!
1*

#6000
0!
0*

#7000
1!
1*

#8000
0!
0*

#9000
1!
1*

#10000
0!
0*

#11000
1!
1*

#12000
0!
0*

#13000
1!
1*

#14000
0!
0*

#15000
1!
1*

#16000
0!
0*

#17000
1!
1*

#18000
0!
0*

#19000
1!
1*

#20000
0!
1"
0*
1+

#21000
1!
1#
b1 $
1*
1,
b1 -

#22000
0!
0*

#23000
1!
b10 $
1*
b10 -
b1 2

#24000
0!
0*

#25000
1!
b11 $
1*
b11 -
b10 2

#26000
0!
0*

#27000
1!
b100 $
1*
b100 -
b11 2

#28000
0!
0*

#29000
1!
b101 $
1*
b101 -
b100 2

#30000
0!
0*

#31000
1!
b110 $
1*
b110 -
b101 2

#32000
0!
0*

#33000
1!
b111 $
1*
b111 -
b110 2

#34000
0!
0*

#35000
1!
b1000 $
1*
b1000 -
b111 2

#36000
0!
0*

#37000
1!
b1001 $
1*
b1001 -
b1000 2

#38000
0!
0*

#39000
1!
b1010 $
1*
b1010 -
b1001 2

#40000
0!
0*

#41000
1!
b1011 $
1*
b1011 -
b1010 2

#42000
0!
0*

#43000
1!
b1100 $
1*
b1100 -
b1011 2

#44000
0!
0*

#45000
1!
b1101 $
1*
b1101 -
b1100 2

#46000
0!
0*

#47000
1!
b1110 $
1*
b1110 -
b1101 2

#48000
0!
0*

#49000
1!
b1111 $
1*
b1111 -
b1110 2

#50000
0!
0*

#51000
1!
b10000 $
1*
b10000 -
b1111 2

#52000
0!
0*

#53000
1!
b10001 $
1*
b10001 -
b10000 2

#54000
0!
0*

#55000
1!
b10010 $
1*
b10010 -
b10001 2

#56000
0!
0*

#57000
1!
b10011 $
1*
b10011 -
b10010 2

#58000
0!
0*

#59000
1!
b10100 $
1*
b10100 -
b10011 2

#60000
0!
0*

#61000
1!
b10101 $
1*
b10101 -
b10100 2

#62000
0!
0*

#63000
1!
b10110 $
1*
b10110 -
b10101 2

#64000
0!
0*

#65000
1!
b10111 $
1*
b10111 -
b10110 2

#66000
0!
0*

#67000
1!
b11000 $
1*
b11000 -
b10111 2

#68000
0!
0*

#69000
1!
b11001 $
1*
b11001 -
b11000 2

#70000
0!
0*

#71000
1!
b11010 $
1*
b11010 -
b11001 2

#72000
0!
0*

#73000
1!
b11011 $
1*
b11011 -
b11010 2

#74000
0!
0*

#75000
1!
b11100 $
1*
b11100 -
b11011 2

#76000
0!
0*

#77000
1!
b11101 $
1*
b11101 -
b11100 2

#78000
0!
0*

#79000
1!
b11110 $
1*
b11110 -
b11101 2

#80000
0!
0*

#81000
1!
b11111 $
1*
b11111 -
b11110 2

#82000
0!
0*

#83000
1!
b100000 $
1*
b100000 -
b11111 2

#84000
0!
0*

#85000
1!
b100001 $
1*
b100001 -
b100000 2

#86000
0!
0*

#87000
1!
b100010 $
1*
b100010 -
b100001 2

#88000
0!
0*

#89000
1!
b100011 $
1*
b100011 -
b100010 2

#90000
0!
0*

#91000
1!
b100100 $
1*
b100100 -
b100011 2

#92000
0!
0*

#93000
1!
b100101 $
1*
b100101 -
b100100 2

#94000
0!
0*

#95000
1!
b100110 $
1*
b100110 -
b100101 2

#96000
0!
0*

#97000
1!
b100111 $
1*
b100111 -
b100110 2

#98000
0!
0*

#99000
1!
b101000 $
1*
b101000 -
b100111 2

#100000
0!
0*

#101000
1!
b101001 $
1*
b101001 -
b101000 2

#102000
0!
0*

#103000
1!
b101010 $
1*
b101010 -
b101001 2

#104000
0!
0*

#105000
1!
b101011 $
1*
b101011 -
b101010 2

#106000
0!
0*

#107000
1!
b101100 $
1*
b101100 -
b101011 2

#108000
0!
0*

#109000
1!
b101101 $
1*
b101101 -
b101100 2

#110000
0!
0*

#111000
1!
b101110 $
1*
b101110 -
b101101 2

#112000
0!
0*

#113000
1!
b101111 $
1*
b101111 -
b101110 2

#114000
0!
0*

#115000
1!
b110000 $
1*
b110000 -
b101111 2

#116000
0!
0*

#117000
1!
b110001 $
1*
b110001 -
b110000 2

#118000
0!
0*

#119000
1!
b110010 $
1*
b110010 -
b110001 2

#120000
0!
0*

#121000
1!
b110011 $
1*
b110011 -
b110010 2

#122000
0!
0*

#123000
1!
b110100 $
1*
b110100 -
b110011 2

#124000
0!
0*

#125000
1!
b110101 $
1*
b110101 -
b110100 2

#126000
0!
0*

#127000
1!
b110110 $
1*
b110110 -
b110101 2

#128000
0!
0*

#129000
1!
b110111 $
1*
b110111 -
b110110 2

#130000
0!
0*

#131000
1!
b111000 $
1*
b111000 -
b110111 2

#132000
0!
0*

#133000
1!
b111001 $
1*
b111001 -
b111000 2

#134000
0!
0*

#135000
1!
b111010 $
1*
b111010 -
b111001 2

#136000
0!
0*

#137000
1!
b111011 $
1*
b111011 -
b111010 2

#138000
0!
0*

#139000
1!
b111100 $
1*
b111100 -
b111011 2

#140000
0!
0*

#141000
1!
b111101 $
1*
b111101 -
b111100 2

#142000
0!
0*

#143000
1!
b111110 $
1*
b111110 -
b111101 2

#144000
0!
0*

#145000
1!
b111111 $
1*
b111111 -
b111110 2

#146000
0!
0*

#147000
1!
b1000000 $
1*
b1000000 -
b111111 2

#148000
0!
0*

#149000
1!
b1000001 $
1*
b1000001 -
b1000000 2

#150000
0!
0*

#151000
1!
b1000010 $
1*
b1000010 -
b1000001 2

#152000
0!
0*

#153000
1!
b1000011 $
1*
b1000011 -
b1000010 2

#154000
0!
0*

#155000
1!
b1000100 $
1*
b1000100 -
b1000011 2

#156000
0!
0*

#157000
1!
b1000101 $
1*
b1000101 -
b1000100 2

#158000
0!
0*

#159000
1!
b1000110 $
1*
b1000110 -
b1000101 2

#160000
0!
0*

#161000
1!
b1000111 $
1*
b1000111 -
b1000110 2

#162000
0!
0*

#163000
1!
b1001000 $
1*
b1001000 -
b1000111 2

#164000
0!
0*

#165000
1!
b1001001 $
1*
b1001001 -
b1001000 2

#166000
0!
0*

#167000
1!
b1001010 $
1*
b1001010 -
b1001001 2

#168000
0!
0*

#169000
1!
b1001011 $
1*
b1001011 -
b1001010 2

#170000
0!
0*

#171000
1!
b1001100 $
1*
b1001100 -
b1001011 2

#172000
0!
0*

#173000
1!
b1001101 $
1*
b1001101 -
b1001100 2

#174000
0!
0*

#175000
1!
b1001110 $
1*
b1001110 -
b1001101 2

#176000
0!
0*

#177000
1!
b1001111 $
1*
b1001111 -
b1001110 2

#178000
0!
0*

#179000
1!
b1010000 $
1*
b1010000 -
b1001111 2

#180000
0!
0*

#181000
1!
b1010001 $
1*
b1010001 -
b1010000 2

#182000
0!
0*

#183000
1!
b1010010 $
1*
b1010010 -
b1010001 2

#184000
0!
0*

#185000
1!
b1010011 $
1*
b1010011 -
b1010010 2

#186000
0!
0*

#187000
1!
b1010100 $
1*
b1010100 -
b1010011 2

#188000
0!
0*

#189000
1!
b1010101 $
1*
b1010101 -
b1010100 2

#190000
0!
0*

#191000
1!
b1010110 $
1*
b1010110 -
b1010101 2

#192000
0!
0*

#193000
1!
b1010111 $
1*
b1010111 -
b1010110 2

#194000
0!
0*

#195000
1!
b1011000 $
1*
b1011000 -
b1010111 2

#196000
0!
0*

#197000
1!
b1011001 $
1*
b1011001 -
b1011000 2

#198000
0!
0*

#199000
1!
b1011010 $
1*
b1011010 -
b1011001 2

#200000
0!
0*

#201000
1!
b1011011 $
1*
b1011011 -
b1011010 2

#202000
0!
0*

#203000
1!
b1011100 $
1*
b1011100 -
b1011011 2

#204000
0!
0*

#205000
1!
b1011101 $
1*
b1011101 -
b1011100 2

#206000
0!
0*

#207000
1!
b1011110 $
1*
b1011110 -
b1011101 2

#208000
0!
0*

#209000
1!
b1011111 $
1*
b1011111 -
b1011110 2

#210000
0!
0*

#211000
1!
b1100000 $
1*
b1100000 -
b1011111 2

#212000
0!
0*

#213000
1!
b1100001 $
1*
b1100001 -
b1100000 2

#214000
0!
0*

#215000
1!
b1100010 $
1*
b1100010 -
b1100001 2

#216000
0!
0*

#217000
1!
b1100011 $
1*
b1100011 -
b1100010 2

#218000
0!
0*

#219000
1!
b1100100 $
1*
b1100100 -
b1100011 2

#220000
0!
0*

#221000
1!
b1100101 $
1*
b1100101 -
b1100100 2

#222000
0!
0*

#223000
1!
b1100110 $
1*
b1100110 -
b1100101 2

#224000
0!
0*

#225000
1!
b1100111 $
1*
b1100111 -
b1100110 2

#226000
0!
0*

#227000
1!
b1101000 $
1*
b1101000 -
b1100111 2

#228000
0!
0*

#229000
1!
b1101001 $
1*
b1101001 -
b1101000 2

#230000
0!
0*

#231000
1!
b1101010 $
1*
b1101010 -
b1101001 2

#232000
0!
0*

#233000
1!
b1101011 $
1*
b1101011 -
b1101010 2

#234000
0!
0*

#235000
1!
b1101100 $
1*
b1101100 -
b1101011 2

#236000
0!
0*

#237000
1!
b1101101 $
1*
b1101101 -
b1101100 2

#238000
0!
0*

#239000
1!
b1101110 $
1*
b1101110 -
b1101101 2

#240000
0!
0*

#241000
1!
b1101111 $
1*
b1101111 -
b1101110 2

#242000
0!
0*

#243000
1!
b1110000 $
1*
b1110000 -
b1101111 2

#244000
0!
0*

#245000
1!
b1110001 $
1*
b1110001 -
b1110000 2

#246000
0!
0*

#247000
1!
b1110010 $
1*
b1110010 -
b1110001 2

#248000
0!
0*

#249000
1!
b1110011 $
1*
b1110011 -
b1110010 2

#250000
0!
0*

#251000
1!
b1110100 $
1*
b1110100 -
b1110011 2

#252000
0!
0*

#253000
1!
b1110101 $
1*
b1110101 -
b1110100 2

#254000
0!
0*

#255000
1!
b1110110 $
1*
b1110110 -
b1110101 2

#256000
0!
0*

#257000
1!
b1110111 $
1*
b1110111 -
b1110110 2

#258000
0!
0*

#259000
1!
b1111000 $
1*
b1111000 -
b1110111 2

#260000
0!
0*

#261000
1!
b1111001 $
1*
b1111001 -
b1111000 2

#262000
0!
0*

#263000
1!
b1111010 $
1*
b1111010 -
b1111001 2

#264000
0!
0*

#265000
1!
b1111011 $
1*
b1111011 -
b1111010 2

#266000
0!
0*

#267000
1!
b1111100 $
1*
b1111100 -
b1111011 2

#268000
0!
0*

#269000
1!
b1111101 $
1*
b1111101 -
b1111100 2

#270000
0!
0*

#271000
1!
b1111110 $
1*
b1111110 -
b1111101 2

#272000
0!
0*

#273000
1!
b1111111 $
1*
b1111111 -
b1111110 2

#274000
0!
0*

#275000
1!
b10000000 $
1*
b10000000 -
b1111111 2

#276000
0!
0*

#277000
1!
b10000001 $
1*
b10000001 -
b10000000 2

#278000
0!
0*

#279000
1!
b10000010 $
1*
b10000010 -
b10000001 2

#280000
0!
0*

#281000
1!
b10000011 $
1*
b10000011 -
b10000010 2

#282000
0!
0*

#283000
1!
b10000100 $
1*
b10000100 -
b10000011 2

#284000
0!
0*

#285000
1!
b10000101 $
1*
b10000101 -
b10000100 2

#286000
0!
0*

#287000
1!
b10000110 $
1*
b10000110 -
b10000101 2

#288000
0!
0*

#289000
1!
b10000111 $
1*
b10000111 -
b10000110 2

#290000
0!
0*

#291000
1!
b10001000 $
1*
b10001000 -
b10000111 2

#292000
0!
0*

#293000
1!
b10001001 $
1*
b10001001 -
b10001000 2

#294000
0!
0*

#295000
1!
b10001010 $
1*
b10001010 -
b10001001 2

#296000
0!
0*

#297000
1!
b10001011 $
1*
b10001011 -
b10001010 2

#298000
0!
0*

#299000
1!
b10001100 $
1*
b10001100 -
b10001011 2

#300000
0!
0*

#301000
1!
b10001101 $
1*
b10001101 -
b10001100 2

#302000
0!
0*

#303000
1!
b10001110 $
1*
b10001110 -
b10001101 2

#304000
0!
0*

#305000
1!
b10001111 $
1*
b10001111 -
b10001110 2

#306000
0!
0*

#307000
1!
b10010000 $
1*
b10010000 -
b10001111 2

#308000
0!
0*

#309000
1!
b10010001 $
1*
b10010001 -
b10010000 2

#310000
0!
0*

#311000
1!
b10010010 $
1*
b10010010 -
b10010001 2

#312000
0!
0*

#313000
1!
b10010011 $
1*
b10010011 -
b10010010 2

#314000
0!
0*

#315000
1!
b10010100 $
1*
b10010100 -
b10010011 2

#316000
0!
0*

#317000
1!
b10010101 $
1*
b10010101 -
b10010100 2

#318000
0!
0*

#319000
1!
b10010110 $
1*
b10010110 -
b10010101 2

#320000
0!
0*

#321000
1!
b10010111 $
1*
b10010111 -
b10010110 2

#322000
0!
0*

#323000
1!
b10011000 $
1*
b10011000 -
b10010111 2

#324000
0!
0*

#325000
1!
b10011001 $
1*
b10011001 -
b10011000 2

#326000
0!
0*

#327000
1!
b10011010 $
1*
b10011010 -
b10011001 2

#328000
0!
0*

#329000
1!
b10011011 $
1*
b10011011 -
b10011010 2

#330000
0!
0*

#331000
1!
b10011100 $
1*
b10011100 -
b10011011 2

#332000
0!
0*

#333000
1!
b10011101 $
1*
b10011101 -
b10011100 2

#334000
0!
0*

#335000
1!
b10011110 $
1*
b10011110 -
b10011101 2

#336000
0!
0*

#337000
1!
b10011111 $
1*
b10011111 -
b10011110 2

#338000
0!
0*

#339000
1!
b10100000 $
1*
b10100000 -
b10011111 2

#340000
0!
0*

#341000
1!
b10100001 $
1*
b10100001 -
b10100000 2

#342000
0!
0*

#343000
1!
b10100010 $
1*
b10100010 -
b10100001 2

#344000
0!
0*

#345000
1!
b10100011 $
1*
b10100011 -
b10100010 2

#346000
0!
0*

#347000
1!
b10100100 $
1*
b10100100 -
b10100011 2

#348000
0!
0*

#349000
1!
b10100101 $
1*
b10100101 -
b10100100 2

#350000
0!
0*

#351000
1!
b10100110 $
1*
b10100110 -
b10100101 2

#352000
0!
0*

#353000
1!
b10100111 $
1*
b10100111 -
b10100110 2

#354000
0!
0*

#355000
1!
b10101000 $
1*
b10101000 -
b10100111 2

#356000
0!
0*

#357000
1!
b10101001 $
1*
b10101001 -
b10101000 2

#358000
0!
0*

#359000
1!
b10101010 $
1*
b10101010 -
b10101001 2

#360000
0!
0*

#361000
1!
b10101011 $
1*
b10101011 -
b10101010 2

#362000
0!
0*

#363000
1!
b10101100 $
1*
b10101100 -
b10101011 2

#364000
0!
0*

#365000
1!
b10101101 $
1*
b10101101 -
b10101100 2

#366000
0!
0*

#367000
1!
b10101110 $
1*
b10101110 -
b10101101 2

#368000
0!
0*

#369000
1!
b10101111 $
1*
b10101111 -
b10101110 2

#370000
0!
0*

#371000
1!
b10110000 $
1*
b10110000 -
b10101111 2

#372000
0!
0*

#373000
1!
b10110001 $
1*
b10110001 -
b10110000 2

#374000
0!
0*

#375000
1!
b10110010 $
1*
b10110010 -
b10110001 2

#376000
0!
0*

#377000
1!
b10110011 $
1*
b10110011 -
b10110010 2

#378000
0!
0*

#379000
1!
b10110100 $
1*
b10110100 -
b10110011 2

#380000
0!
0*

#381000
1!
b10110101 $
1*
b10110101 -
b10110100 2

#382000
0!
0*

#383000
1!
b10110110 $
1*
b10110110 -
b10110101 2

#384000
0!
0*

#385000
1!
b10110111 $
1*
b10110111 -
b10110110 2

#386000
0!
0*

#387000
1!
b10111000 $
1*
b10111000 -
b10110111 2

#388000
0!
0*

#389000
1!
b10111001 $
1*
b10111001 -
b10111000 2

#390000
0!
0*

#391000
1!
b10111010 $
1*
b10111010 -
b10111001 2

#392000
0!
0*

#393000
1!
b10111011 $
1*
b10111011 -
b10111010 2

#394000
0!
0*

#395000
1!
b10111100 $
1*
b10111100 -
b10111011 2

#396000
0!
0*

#397000
1!
b10111101 $
1*
b10111101 -
b10111100 2

#398000
0!
0*

#399000
1!
b10111110 $
1*
b10111110 -
b10111101 2

#400000
0!
0*

#401000
1!
b10111111 $
1*
b10111111 -
b10111110 2

#402000
0!
0*

#403000
1!
b11000000 $
1*
b11000000 -
b10111111 2

#404000
0!
0*

#405000
1!
b11000001 $
1*
b11000001 -
b11000000 2

#406000
0!
0*

#407000
1!
b11000010 $
1*
b11000010 -
b11000001 2

#408000
0!
0*

#409000
1!
b11000011 $
1*
b11000011 -
b11000010 2

#410000
0!
0*

#411000
1!
b11000100 $
1*
b11000100 -
b11000011 2

#412000
0!
0*

#413000
1!
b11000101 $
1*
b11000101 -
b11000100 2

#414000
0!
0*

#415000
1!
b11000110 $
1*
b11000110 -
b11000101 2

#416000
0!
0*

#417000
1!
b11000111 $
1*
b11000111 -
b11000110 2

#418000
0!
0*

#419000
1!
b11001000 $
1*
b11001000 -
b11000111 2

#420000
0!
0*

#421000
1!
b11001001 $
1*
b11001001 -
b11001000 2

#422000
0!
0*

#423000
1!
b11001010 $
1*
b11001010 -
b11001001 2

#424000
0!
0*

#425000
1!
b11001011 $
1*
b11001011 -
b11001010 2

#426000
0!
0*

#427000
1!
b11001100 $
1*
b11001100 -
b11001011 2

#428000
0!
0*

#429000
1!
b11001101 $
1*
b11001101 -
b11001100 2

#430000
0!
0*

#431000
1!
b11001110 $
1*
b11001110 -
b11001101 2

#432000
0!
0*

#433000
1!
b11001111 $
1*
b11001111 -
b11001110 2

#434000
0!
0*

#435000
1!
b11010000 $
1*
b11010000 -
b11001111 2

#436000
0!
0*

#437000
1!
b11010001 $
1*
b11010001 -
b11010000 2

#438000
0!
0*

#439000
1!
b11010010 $
1*
b11010010 -
b11010001 2

#440000
0!
0*

#441000
1!
b11010011 $
1*
b11010011 -
b11010010 2

#442000
0!
0*

#443000
1!
b11010100 $
1*
b11010100 -
b11010011 2

#444000
0!
0*

#445000
1!
b11010101 $
1*
b11010101 -
b11010100 2

#446000
0!
0*

#447000
1!
b11010110 $
1*
b11010110 -
b11010101 2

#448000
0!
0*

#449000
1!
b11010111 $
1*
b11010111 -
b11010110 2

#450000
0!
0*

#451000
1!
b11011000 $
1*
b11011000 -
b11010111 2

#452000
0!
0*

#453000
1!
b11011001 $
1*
b11011001 -
b11011000 2

#454000
0!
0*

#455000
1!
b11011010 $
1*
b11011010 -
b11011001 2

#456000
0!
0*

#457000
1!
b11011011 $
1*
b11011011 -
b11011010 2

#458000
0!
0*

#459000
1!
b11011100 $
1*
b11011100 -
b11011011 2

#460000
0!
0*

#461000
1!
b11011101 $
1*
b11011101 -
b11011100 2

#462000
0!
0*

#463000
1!
b11011110 $
1*
b11011110 -
b11011101 2

#464000
0!
0*

#465000
1!
b11011111 $
1*
b11011111 -
b11011110 2

#466000
0!
0*

#467000
1!
b11100000 $
1*
b11100000 -
b11011111 2

#468000
0!
0*

#469000
1!
b11100001 $
1*
b11100001 -
b11100000 2

#470000
0!
0*

#471000
1!
b11100010 $
1*
b11100010 -
b11100001 2

#472000
0!
0*

#473000
1!
b11100011 $
1*
b11100011 -
b11100010 2

#474000
0!
0*

#475000
1!
b11100100 $
1*
b11100100 -
b11100011 2

#476000
0!
0*

#477000
1!
b11100101 $
1*
b11100101 -
b11100100 2

#478000
0!
0*

#479000
1!
b11100110 $
1*
b11100110 -
b11100101 2

#480000
0!
0*

#481000
1!
b11100111 $
1*
b11100111 -
b11100110 2

#482000
0!
0*

#483000
1!
b11101000 $
1*
b11101000 -
b11100111 2

#484000
0!
0*

#485000
1!
b11101001 $
1*
b11101001 -
b11101000 2

#486000
0!
0*

#487000
1!
b11101010 $
1*
b11101010 -
b11101001 2

#488000
0!
0*

#489000
1!
b11101011 $
1*
b11101011 -
b11101010 2

#490000
0!
0*

#491000
1!
b11101100 $
1*
b11101100 -
b11101011 2

#492000
0!
0*

#493000
1!
b11101101 $
1*
b11101101 -
b11101100 2

#494000
0!
0*

#495000
1!
b11101110 $
1*
b11101110 -
b11101101 2

#496000
0!
0*

#497000
1!
b11101111 $
1*
b11101111 -
b11101110 2

#498000
0!
0*

#499000
1!
b11110000 $
1*
b11110000 -
b11101111 2

#500000
0!
0*

#501000
1!
b11110001 $
1*
b11110001 -
b11110000 2

#502000
0!
0*

#503000
1!
b11110010 $
1*
b11110010 -
b11110001 2

#504000
0!
0*

#505000
1!
b11110011 $
1*
b11110011 -
b11110010 2

#506000
0!
0*

#507000
1!
b11110100 $
1*
b11110100 -
b11110011 2

#508000
0!
0*

#509000
1!
b11110101 $
1*
b11110101 -
b11110100 2

#510000
0!
0*

#511000
1!
b11110110 $
1*
b11110110 -
b11110101 2

#512000
0!
0*

#513000
1!
b11110111 $
1*
b11110111 -
b11110110 2

#514000
0!
0*

#515000
1!
b11111000 $
1*
b11111000 -
b11110111 2

#516000
0!
0*

#517000
1!
b11111001 $
1*
b11111001 -
b11111000 2

#518000
0!
0*

#519000
1!
b11111010 $
1*
b11111010 -
b11111001 2

#520000
0!
0*

#521000
1!
b11111011 $
1*
b11111011 -
b11111010 2

#522000
0!
0*

#523000
1!
b11111100 $
1*
b11111100 -
b11111011 2

#524000
0!
0*

#525000
1!
b11111101 $
1*
b11111101 -
b11111100 2

#526000
0!
0*

#527000
1!
b11111110 $
1*
b11111110 -
b11111101 2

#528000
0!
0*

#529000
1!
b11111111 $
b100000000 )
1*
b11111111 -
b11111110 2

#530000
0!
0*

#531000
1!
b0 $
1*
b0 -
b11111111 2

#532000
0!
0*

#533000
1!
0#
1*
0,
b0 2
13

#534000
0!
0*

#535000
1!
1*

#536000
0!
0*

#537000
1!
1*

#538000
0!
0*

#539000
1!
1*

#540000
0!
0*

#541000
1!
1*

#542000
0!
0*

#543000
1!
1*

#544000
0!
0*

#545000
1!
1*

#546000
0!
0*

#547000
1!
1*

#548000
0!
0*

#549000
1!
1*

#550000
0!
0*

#551000
1!
1*

#552000
0!
0*

#553000
1!
1%
b1001000110100010101100111100010011010101111001101111011111111111011011100101110101001100001110110010101000011001000010000 &
1'
b10001001000100011001101000100010101010110011001110111100001111111111011101101110111001100101110111010101010011001100010001 (
1*
1.
b1001000110100010101100111100010011010101111001101111011111111111011011100101110101001100001110110010101000011001000010000 /
10
b10001001000100011001101000100010101010110011001110111100001111111111011101101110111001100101110111010101010011001100010001 1
b10000 4

#554000
0!
0*

#555000
1!
0%
0'
1*
0.
00

